<?xml version="1.0" standalone="no"?>
<!DOCTYPE svg PUBLIC "-//W3C//DTD SVG 1.1//EN" "http://www.w3.org/Graphics/SVG/1.1/DTD/svg11.dtd" >
<svg xmlns="http://www.w3.org/2000/svg">
<metadata>
This is a custom SVG webfont generated by Font Squirrel.
Copyright   :  19902006 Apple Computer Inc  1981 Linotype AG  199091 Type Solutions Inc
</metadata>
<defs>
<font id="HelveticaLight" horiz-adv-x="1193" >
<font-face units-per-em="2048" ascent="1470" descent="-578" />
<missing-glyph horiz-adv-x="595" />
<glyph unicode=" "  horiz-adv-x="595" />
<glyph unicode="&#x09;" horiz-adv-x="595" />
<glyph unicode="&#xa0;" horiz-adv-x="595" />
<glyph unicode="!" horiz-adv-x="714" d="M279 0v188h157v-188h-157zM279 1067v481h157v-481l-30 -678h-97z" />
<glyph unicode="&#x22;" horiz-adv-x="595" d="M123 1063v485h110v-485h-110zM360 1063v485h113v-485h-113z" />
<glyph unicode="#" d="M57 489v127h256l45 302h-239v126h258l67 457h129l-67 -457h293l65 457h127l-65 -457h213v-126h-232l-43 -302h219v-127h-237l-70 -489h-127l68 489h-295l-74 -489h-127l74 489h-238zM440 616h297l43 302h-293z" />
<glyph unicode="$" d="M80 436h139q0 -74 23.5 -136t67.5 -111.5t104.5 -79t134.5 -33.5v639q-88 20 -167 49t-137.5 76t-91 115.5t-32.5 168.5q0 90 33.5 164t93 125t137.5 78t166 25v131h98v-131q88 0 164 -25t131 -73t88 -118.5t37 -162.5h-139q0 59 -22.5 107t-60.5 83t-89 54.5t-109 19.5 v-574q106 -25 192.5 -55.5t146 -79.5t93 -128t33.5 -202q0 -94 -41 -167.5t-106.5 -126t-149.5 -80t-168 -29.5v-164h-98v164q-182 10 -302 101.5t-159 271.5q-4 27 -6 53zM258 1130q0 -70 22.5 -117.5t62.5 -78.5t92 -50.5t114 -35.5v553q-61 0 -113.5 -19.5t-92.5 -55.5 t-62.5 -85.5t-22.5 -110.5zM649 76q68 0 126.5 23.5t104.5 64.5t71.5 97t25.5 126q0 80 -25.5 132t-70.5 86t-103.5 53.5t-128.5 33.5v-616z" />
<glyph unicode="%" horiz-adv-x="1910" d="M143 1145q0 72 29 136.5t77 113.5t112.5 77.5t138.5 28.5q72 0 137 -27.5t114.5 -76.5t77 -114.5t27.5 -137.5q0 -74 -27.5 -138.5t-77 -112.5t-115 -77t-136.5 -29q-74 0 -138.5 29t-112.5 77t-77 112.5t-29 138.5zM266 1145q0 -47 18.5 -89t51.5 -75t74 -51.5t90 -18.5 q47 0 89 18.5t73.5 51.5t51 75t19.5 89t-18.5 89t-50 73.5t-74.5 51t-90 19.5q-49 0 -90 -18.5t-74 -50t-51.5 -74.5t-18.5 -90zM471 -31l854 1547h111l-852 -1547h-113zM1059 356q0 74 28.5 138.5t76.5 112.5t112.5 77t138.5 29t138.5 -29t111.5 -77t73.5 -112.5 t26.5 -138.5q0 -72 -26.5 -137t-73.5 -114.5t-111.5 -77t-138.5 -27.5t-139.5 27.5t-113.5 77t-75.5 114.5t-27.5 137zM1180 352q0 -45 19.5 -87t52 -73.5t74.5 -50t87 -18.5q47 0 89 19.5t73 51t49 73.5t18 89t-18 89t-49 75t-73 51.5t-89 18.5q-49 0 -91 -19.5 t-73.5 -52.5t-50 -76t-18.5 -90z" />
<glyph unicode="&#x26;" horiz-adv-x="1433" d="M88 420q0 86 29.5 158.5t81 133t118 106.5t142.5 81q-63 74 -114.5 159t-51.5 187q0 74 27.5 130.5t74.5 95t110.5 58t135.5 19.5t131 -23.5t102.5 -64.5t67 -96t23.5 -115q0 -78 -25 -134t-67 -100t-97 -81t-117 -74l390 -461q41 70 53 146t12 155h127 q-4 -104 -26.5 -208.5t-81.5 -194.5l251 -297h-174l-149 182q-102 -121 -218 -172t-272 -51q-100 0 -188 34t-153.5 93t-103.5 144.5t-38 189.5zM233 410q0 -78 28 -139.5t74 -104.5t109.5 -66.5t139.5 -23.5q123 0 219 56t174 151l-442 524q-63 -31 -119 -73t-94.5 -93 t-63.5 -110.5t-25 -120.5zM424 1247q0 -35 17.5 -76t42 -79.5t52.5 -73.5l50 -62q63 39 128.5 85t98.5 120q18 43 15 91t-27.5 88t-67.5 66t-102 26q-41 0 -78 -12.5t-65.5 -36t-46 -58.5t-17.5 -78z" />
<glyph unicode="'" horiz-adv-x="477" d="M182 1063v485h113v-485h-113z" />
<glyph unicode="(" horiz-adv-x="714" d="M119 594q0 147 24.5 277t71.5 251t114.5 236t155.5 231h111q-156 -223 -243 -478t-87 -527q0 -270 90 -521t240 -475h-111q-88 123 -156.5 239t-115.5 234.5t-70.5 248.5t-23.5 284z" />
<glyph unicode=")" horiz-adv-x="714" d="M121 -412q154 225 241 480.5t87 527.5q0 268 -90.5 520t-237.5 473h108q88 -123 158 -237.5t116 -234.5t70.5 -250t24.5 -281q0 -150 -24.5 -280t-71.5 -251t-117 -235.5t-156 -231.5h-108z" />
<glyph unicode="*" horiz-adv-x="835" d="M94 1298l39 91l240 -93v252h90v-252l244 90l32 -94l-243 -80l159 -227l-84 -51l-157 231l-168 -227l-76 57l166 217z" />
<glyph unicode="+" horiz-adv-x="1419" d="M172 473v129h473v473h129v-473h473v-129h-473v-473h-129v473h-473z" />
<glyph unicode="," horiz-adv-x="595" d="M219 0v188h158v-254q0 -94 -44 -150t-114 -79v80q27 16 50.5 47t23.5 94v74h-74z" />
<glyph unicode="-" horiz-adv-x="714" d="M86 492v135h545v-135h-545z" />
<glyph unicode="." horiz-adv-x="595" d="M219 0v188h158v-188h-158z" />
<glyph unicode="/" horiz-adv-x="595" d="M-6 -193l506 1782h118l-503 -1782h-121z" />
<glyph unicode="0" d="M84 745q0 145 19.5 282.5t73.5 246t155.5 175.5t265.5 67q111 0 192.5 -33t139 -91.5t93.5 -136t55.5 -164.5t25.5 -179.5t6 -180.5q0 -150 -21.5 -288t-79 -243.5t-155.5 -168t-256 -62.5t-257 62.5t-156.5 169t-79 247.5t-21.5 297zM221 731q0 -145 18.5 -265 t61.5 -204t114.5 -130t182.5 -46q123 0 196.5 60.5t112.5 154.5t52.5 213t13.5 231q0 123 -14.5 241t-55.5 210t-114.5 148.5t-194.5 56.5q-115 0 -186.5 -57.5t-112.5 -151.5t-57.5 -215t-16.5 -246z" />
<glyph unicode="1" d="M258 1126v91q86 6 155.5 17t123 41t88 87t53.5 154h108v-1516h-137v1126h-391z" />
<glyph unicode="2" d="M102 0q2 111 23.5 199t95.5 172q80 90 165 154.5t167 114.5l155 92q73 42 129 91t87.5 111.5t31.5 152.5q0 74 -25.5 132.5t-70.5 99.5t-105.5 61.5t-131.5 20.5q-74 0 -135.5 -32t-105.5 -83t-67.5 -119.5t-19.5 -146.5h-148q0 111 35 203t99.5 157.5t155.5 100.5 t204 35q115 0 202 -33t145.5 -89.5t89 -133t30.5 -162.5q0 -102 -34 -179t-88 -137.5t-124.5 -107.5t-143.5 -89l-144 -81q-71 -39 -128 -82l-69 -60q-35 -31 -62.5 -67.5t-45 -80.5t-19.5 -97h844v-117h-992z" />
<glyph unicode="3" d="M74 438h137q0 -174 104.5 -263t272.5 -89q82 0 152.5 27.5t120.5 76t77 109.5t25 129q-4 92 -43 153.5t-104.5 97.5t-154 47t-186.5 5v113q96 0 176 11t137.5 45t89 89t31.5 144q0 72 -25.5 122t-69.5 82.5t-103.5 48t-122.5 15.5q-74 0 -133.5 -24.5t-102.5 -68.5 t-66.5 -102.5t-23.5 -130.5h-137q0 102 36 185t109 155q72 63 161 82t183 19q90 0 169 -23t137.5 -69t92.5 -116.5t34 -164.5q0 -119 -52.5 -205t-163.5 -133q82 -27 135.5 -69t83 -92t41 -106.5t11.5 -107.5q0 -94 -33 -176t-95.5 -144.5t-153.5 -100.5t-208 -40 q-131 0 -227 23.5t-160.5 79t-101.5 144.5t-49 222z" />
<glyph unicode="4" d="M78 375v117l704 1009h125v-1012h211v-114h-211v-375h-137v375h-692zM213 489h557v805z" />
<glyph unicode="5" d="M76 393h137q20 -154 122.5 -230.5t252.5 -76.5q84 0 151.5 29.5t114.5 83t71.5 123t24.5 151.5q0 84 -26.5 154.5t-74.5 123t-119 80t-157 27.5q-102 0 -184 -38t-143 -120l-115 17l123 784h752v-117h-635l-97 -510q45 29 83 48.5t77 31t81 16.5t93 5q104 0 192.5 -35 t153 -99.5t99 -157.5t34.5 -210q0 -121 -39.5 -214t-106.5 -157.5t-154 -98.5t-179 -34q-106 0 -200.5 21.5t-165 73t-114.5 131t-52 198.5z" />
<glyph unicode="6" d="M88 694q0 135 23.5 280.5t85 266.5t168 198t274.5 77q180 0 301 -94.5t141 -276.5h-141q-25 115 -95.5 185.5t-193.5 70.5q-139 0 -220 -67.5t-124 -169t-58.5 -222.5t-23.5 -227l69 86q36 43 81 75.5t105.5 53t142.5 20.5q231 0 357 -130t126 -357q0 -231 -127 -362.5 t-361 -131.5q-113 0 -210 38t-167.5 124t-111.5 225t-41 338zM276 459q0 -66 18.5 -131.5t60.5 -118.5t106.5 -88t159.5 -35q98 0 163.5 34t106.5 88t58.5 121.5t17.5 137.5q0 176 -84 271.5t-265 95.5q-78 0 -141 -30t-107 -81t-69 -119.5t-25 -144.5z" />
<glyph unicode="7" d="M127 1364v137h965v-129q-162 -184 -277 -378.5t-187.5 -379t-108.5 -343t-42 -271.5h-149q10 164 64 347t136 364.5t185.5 350.5t214.5 302h-801z" />
<glyph unicode="8" d="M94 418q0 135 67.5 241.5t196.5 155.5q-55 35 -95 65.5t-65.5 67.5t-38 83t-12.5 116q0 76 35 145.5t93.5 119.5t136 78t170.5 26q86 0 167.5 -21.5t146.5 -67t103.5 -115t38.5 -165.5q0 -119 -48 -203t-159 -137q125 -45 198 -144.5t73 -232.5q0 -113 -38 -199 t-107.5 -143t-169 -88t-220.5 -31q-82 0 -167 29t-152.5 84t-110.5 139t-43 197zM231 418q0 -72 28 -132.5t76 -104.5t117.5 -69.5t155.5 -25.5q76 0 140.5 24.5t112.5 69.5t75 107.5t27 138.5q0 80 -28 138.5t-77 98t-115.5 59t-142.5 19.5q-80 0 -146.5 -19.5t-115.5 -59 t-78 -100t-29 -144.5zM287 1126q0 -70 26.5 -121t71.5 -82.5t103.5 -48t119.5 -16.5q63 0 116.5 16.5t92.5 52.5t61.5 92t22.5 138q0 117 -75.5 180.5t-231.5 63.5q-66 0 -121 -17.5t-97 -52.5t-65.5 -86t-23.5 -119z" />
<glyph unicode="9" d="M88 1016q0 106 29.5 197.5t90 160t152 105.5t215.5 37q154 0 256.5 -60.5t164 -163t87 -243t25.5 -299.5q0 -193 -41 -338.5t-115.5 -243.5t-175 -148.5t-221.5 -50.5q-88 0 -166 21.5t-135 66.5t-94 115t-45 162h139q23 -123 95.5 -185.5t199.5 -62.5q135 0 216 66.5 t125 168t59.5 218t21.5 221.5l-6 4q-68 -117 -170.5 -177.5t-237.5 -60.5q-109 0 -195 35t-146 99.5t-94 154.5t-34 201zM225 1012q0 -176 92.5 -272.5t257.5 -96.5q80 0 143.5 29.5t107.5 82t66.5 120t22.5 145.5q0 168 -90 271.5t-250 109.5q-174 -6 -262 -108.5 t-88 -280.5z" />
<glyph unicode=":" horiz-adv-x="595" d="M219 0v188h158v-188h-158zM219 868v191h158v-191h-158z" />
<glyph unicode=";" horiz-adv-x="595" d="M219 0v188h158v-254q0 -94 -44 -150t-114 -79v80q27 16 50.5 47t23.5 94v74h-74zM219 868v191h158v-191h-158z" />
<glyph unicode="&#x3c;" horiz-adv-x="1419" d="M172 492v114l1075 479v-137l-905 -399l905 -424v-137z" />
<glyph unicode="=" horiz-adv-x="1419" d="M172 266v129h1075v-129h-1075zM172 684v129h1075v-129h-1075z" />
<glyph unicode="&#x3e;" horiz-adv-x="1419" d="M172 -12v137l905 424l-905 399v137l1075 -479v-114z" />
<glyph unicode="?" horiz-adv-x="1075" d="M82 1110q-8 106 23.5 194.5t95 152t151.5 98t195 34.5q109 0 195.5 -28.5t147 -82t93.5 -128t33 -164.5q0 -96 -42 -164t-103 -125l-125 -117q-65 -59 -111 -133q-37 -55 -41 -122.5t-4 -133.5h-125q-2 119 16.5 215t102.5 185q47 51 98 98t94 95t72 99.5t29 112.5 q0 57 -23 108.5t-66 88.5t-105 58.5t-140 21.5q-80 0 -142.5 -28t-104.5 -77t-63.5 -114.5t-19.5 -143.5h-131zM451 0v188h157v-188h-157z" />
<glyph unicode="@" horiz-adv-x="1720" d="M86 780q0 168 64.5 315.5t175 257t257 173t310.5 63.5q154 0 290 -50t235.5 -141t157.5 -215t58 -274q0 -127 -46 -240.5t-118.5 -199.5t-161.5 -136t-175 -50q-55 0 -110.5 26.5t-74.5 83.5q-49 -49 -117.5 -77.5t-138.5 -28.5t-125 25.5t-94 69.5t-59.5 102.5 t-20.5 123.5q0 109 39 223.5t108.5 210t168 157t219.5 61.5q74 0 140.5 -36t98.5 -106l33 99h143l-217 -650q-12 -37 -19 -67.5t-5 -54t15 -38t46 -14.5q68 0 130.5 49.5t109.5 126t74.5 168.5t27.5 178q0 131 -49 236.5t-133 179.5t-193.5 112t-232.5 38 q-150 0 -274.5 -56.5t-216 -155t-141.5 -228.5t-50 -275q0 -147 52 -274t145.5 -221.5t218.5 -148.5t270 -54q84 0 165 18t154.5 56t137 93.5t112.5 122.5h127q-51 -94 -126.5 -167.5t-167 -126t-194.5 -79t-208 -26.5q-172 0 -321.5 64.5t-259 176t-172 261t-62.5 319.5z M557 618q0 -76 43 -136t125 -60q74 0 138.5 60.5t112.5 145.5t75.5 180t27.5 169q0 61 -41 108.5t-106 47.5q-86 0 -155.5 -52.5t-118 -131.5t-75 -168t-26.5 -163z" />
<glyph unicode="A" horiz-adv-x="1433" d="M33 0l608 1548h166l594 -1548h-152l-178 485h-706l-183 -485h-149zM416 610h606l-303 813z" />
<glyph unicode="B" horiz-adv-x="1433" d="M174 0v1548h559q135 0 232.5 -27.5t159 -79.5t89 -124t27.5 -158q0 -82 -21.5 -141.5t-56.5 -99t-79 -62t-91 -31.5v-4q162 -23 240 -126t78 -259q0 -121 -37 -205t-103.5 -135t-161 -73.5t-202.5 -22.5h-633zM319 125h373q121 0 210 10t147.5 44t87 95.5t28.5 161.5 q0 96 -31.5 155.5t-92 92.5t-144.5 44t-188 11h-390v-614zM319 864h371q115 0 191.5 19.5t124 57.5t68 92t20.5 126q0 74 -23.5 124t-75 81t-134.5 45t-204 14h-338v-559z" />
<glyph unicode="C" horiz-adv-x="1552" d="M102 774q0 221 55.5 376t152 253t228.5 142t285 44q119 0 221.5 -30.5t180.5 -93t129 -154.5t69 -211h-149q-45 197 -168 280.5t-322 83.5q-139 0 -240.5 -56t-167 -150.5t-96 -218.5t-30.5 -261q0 -129 26.5 -254t89 -222t168 -157.5t265.5 -60.5q98 0 180 31.5 t143.5 89t102.5 135.5t63 170h154q-27 -113 -76 -212t-130 -175t-195.5 -120t-270.5 -44q-178 0 -305 65.5t-208 177t-118 259t-37 313.5z" />
<glyph unicode="D" horiz-adv-x="1552" d="M174 0v1548h528q66 0 128.5 -3t123 -15t116.5 -36t110 -62q78 -55 128 -136.5t78.5 -170.5t40 -180t11.5 -169t-9.5 -156.5t-31 -155.5t-57 -146.5t-89.5 -129.5q-53 -59 -116.5 -96t-133 -57.5t-145.5 -27.5t-154 -7h-528zM319 125h353q98 0 185 11t177 61 q78 37 127 104.5t79 145t41 163.5t11 166q0 84 -10 171t-41 166t-82 144.5t-133 108.5q-70 37 -164 47t-190 10h-353v-1298z" />
<glyph unicode="E" horiz-adv-x="1312" d="M174 0v1548h1030v-125h-885v-559h799v-125h-799v-614h906v-125h-1051z" />
<glyph unicode="F" d="M160 0v1548h997v-125h-852v-559h774v-125h-774v-739h-145z" />
<glyph unicode="G" horiz-adv-x="1671" d="M115 782q0 170 43 317.5t132 256t223 171t316 62.5q123 0 229.5 -29.5t191.5 -91t143.5 -153.5t83.5 -215h-150q-20 86 -66.5 154.5t-111 114.5t-143 70.5t-164.5 24.5q-154 0 -263.5 -53t-180 -151.5t-104.5 -234.5t-34 -300q0 -129 38 -246t109.5 -205t176 -139 t237.5 -51q63 0 130 14.5t129.5 46t115.5 83t92 126.5q37 74 50.5 154t17.5 168h-525v125h664v-801h-125v264q-41 -68 -94 -125t-122 -97t-159 -61.5t-204 -21.5q-145 0 -270.5 51t-215.5 153.5t-140 257t-50 361.5z" />
<glyph unicode="H" horiz-adv-x="1552" d="M172 0v1548h145v-663h918v663h145v-1548h-145v760h-918v-760h-145z" />
<glyph unicode="I" horiz-adv-x="595" d="M225 0v1548h148v-1548h-148z" />
<glyph unicode="J" horiz-adv-x="1075" d="M47 489h146q0 -72 6 -143.5t32.5 -127.5t84 -91t157.5 -35q150 0 211 86t61 250v1120h148v-1124q0 -225 -105.5 -345t-330.5 -120q-131 0 -211 44t-124 119t-59.5 170t-15.5 197z" />
<glyph unicode="K" horiz-adv-x="1433" d="M182 0v1548h148v-803l792 803h166l-610 -616l717 -932h-178l-646 842l-241 -244v-598h-148z" />
<glyph unicode="L" d="M174 0v1548h145v-1423h832v-125h-977z" />
<glyph unicode="M" horiz-adv-x="1789" d="M168 0v1548h223l508 -1366h4l500 1366h221v-1548h-147v1380h-4l-508 -1380h-138l-510 1380h-4v-1380h-145z" />
<glyph unicode="N" horiz-adv-x="1552" d="M170 0v1548h166l895 -1351h4v1351h145v-1548h-170l-891 1350h-4v-1350h-145z" />
<glyph unicode="O" horiz-adv-x="1671" d="M115 772q0 170 46 318.5t136 259t223 175t307 64.5q180 0 317.5 -63.5t228.5 -174t137 -260t46 -319.5q0 -168 -46 -315.5t-136 -258t-225 -175t-315 -64.5q-178 0 -313.5 64.5t-225.5 175t-135 258t-45 315.5zM260 772q0 -137 34 -262t103.5 -219t178 -150.5 t260.5 -56.5t260 57.5t177.5 151.5t103.5 219t34 260q0 162 -40 290t-115.5 218t-183 137t-241.5 47q-147 0 -255.5 -58t-178 -153.5t-103.5 -220.5t-34 -260z" />
<glyph unicode="P" horiz-adv-x="1312" d="M168 0v1548h565q152 0 249 -34.5t154.5 -94t80 -138.5t22.5 -165q0 -129 -53 -213t-137 -132t-189.5 -67.5t-214.5 -19.5h-332v-684h-145zM313 809h336q104 0 185 12.5t138.5 48t88.5 97t31 159.5q0 147 -95.5 222t-304.5 75h-379v-614z" />
<glyph unicode="Q" horiz-adv-x="1671" d="M102 772q0 162 44 309.5t133.5 260t223.5 180t314 67.5q164 0 298 -54t230.5 -156.5t148.5 -255t52 -351.5q0 -188 -58 -350t-173 -277l205 -157l-82 -101l-228 179q-80 -51 -175 -79t-212 -28q-178 0 -313 64.5t-226 175t-136.5 258t-45.5 315.5zM250 772 q0 -137 32.5 -262t103.5 -219t179.5 -150.5t259.5 -56.5q82 0 148.5 18.5t124.5 51.5l-178 135l77 100l209 -160q98 96 146.5 238.5t48.5 304.5q0 174 -45 303t-122 216t-182.5 130t-230.5 43q-147 0 -255.5 -58t-179.5 -154.5t-103.5 -221.5t-32.5 -258z" />
<glyph unicode="R" horiz-adv-x="1433" d="M172 0v1548h606q256 0 391.5 -95t135.5 -310q0 -147 -58.5 -233.5t-193.5 -145.5q70 -25 108.5 -70t58 -103.5t24.5 -123t7 -123.5q2 -88 7.5 -146.5t13.5 -94t18 -56t27 -33.5v-14h-162q-25 39 -34 107.5t-14 144.5t-9 146.5t-13 115.5q-12 61 -40.5 99t-69.5 57.5 t-92.5 25.5t-104.5 6h-461v-702h-145zM317 827h457q82 0 151.5 17.5t122 55.5t82 95.5t29.5 139.5q0 86 -30.5 142t-84 88t-121 45t-141.5 13h-465v-596z" />
<glyph unicode="S" horiz-adv-x="1312" d="M92 463h141q10 -104 47 -176t96.5 -117t137.5 -65.5t166 -20.5q102 0 178 25.5t123 69.5t69.5 102.5t22.5 121.5q0 92 -41 147.5t-106.5 91.5t-150.5 57l-174 42q-89 20 -174 48t-150.5 75t-106.5 122t-41 188q0 80 34 155.5t99.5 133t163.5 92t227 34.5 q131 0 229.5 -36.5t163 -100t96.5 -147.5t32 -179h-140q0 88 -30.5 152.5t-85 105.5t-123 60.5t-142.5 19.5q-111 0 -187.5 -30.5t-121.5 -80.5t-62 -110q-11 -37 -11 -75q0 -22 3 -46q14 -76 61.5 -121t116 -73.5t151.5 -46.5l169 -39q86 -20 167 -48t143.5 -75t99.5 -122 t37 -185q0 -215 -148.5 -334t-417.5 -119q-121 0 -223 30.5t-178 94t-118 158t-42 221.5z" />
<glyph unicode="T" d="M35 1423v125h1126v-125h-489v-1423h-148v1423h-489z" />
<glyph unicode="U" horiz-adv-x="1552" d="M176 584v964h148v-921q0 -289 106.5 -416t345.5 -127q125 0 212 34t141.5 101.5t78 167.5t23.5 240v921h145v-964q0 -305 -149.5 -465t-450.5 -160q-303 0 -451.5 164t-148.5 461z" />
<glyph unicode="V" horiz-adv-x="1312" d="M39 1548h151l467 -1376l465 1376h154l-539 -1548h-162z" />
<glyph unicode="W" horiz-adv-x="1910" d="M31 1548h145l334 -1341h4l358 1341h164l353 -1341h4l338 1341h151l-407 -1548h-160l-361 1368h-4l-358 -1368h-162z" />
<glyph unicode="X" horiz-adv-x="1312" d="M39 0l532 795l-512 753h170l424 -651l426 651h170l-508 -753l533 -795h-168l-453 684l-448 -684h-166z" />
<glyph unicode="Y" horiz-adv-x="1312" d="M27 1548h166l456 -745l467 745h170l-561 -872v-676h-147v664z" />
<glyph unicode="Z" horiz-adv-x="1312" d="M68 0v123l991 1300h-907v125h1087v-123l-991 -1300h997v-125h-1177z" />
<glyph unicode="[" horiz-adv-x="714" d="M197 -412v2001h409v-108h-272v-1784h268v-109h-405z" />
<glyph unicode="\" horiz-adv-x="595" d="M-20 1589h118l506 -1782h-121z" />
<glyph unicode="]" horiz-adv-x="714" d="M111 -303h272v1784h-268v108h405v-2001h-409v109z" />
<glyph unicode="^" horiz-adv-x="1419" d="M158 526l493 975h113l496 -975h-123l-432 844l-422 -844h-125z" />
<glyph unicode="_" horiz-adv-x="1075" d="M0 -162h1075v-106h-1075v106z" />
<glyph unicode="`" horiz-adv-x="714" d="M96 1534h168l240 -299h-111z" />
<glyph unicode="a" d="M98 291q0 283 389 336l181 22q35 4 86 13.5t82 23.5q33 14 41 50t8 67q0 98 -63.5 161.5t-215.5 63.5q-66 0 -122 -12t-98 -41t-68.5 -77t-34.5 -122h-131q6 98 43.5 169t99 115t142.5 64.5t171 20.5q84 0 159 -18.5t129 -58.5t86 -106.5t32 -162.5v-609q0 -74 26 -94 q11 -9 32 -8q29 0 77 16v-100q-16 -4 -45 -12t-57 -8q-29 0 -58 6q-33 4 -52 20.5t-30.5 39t-15.5 49t-4 57.5q-82 -90 -187.5 -138.5t-228.5 -48.5q-74 0 -141.5 19.5t-118.5 60.5t-82 100.5t-31 141.5zM238 287q0 -53 19 -90t53 -61.5t78 -37t89 -12.5q78 0 150.5 19.5 t130 59.5t92.5 101.5t35 145.5v174q-82 -35 -166 -46.5t-168 -17.5q-150 -10 -231.5 -66t-81.5 -169z" />
<glyph unicode="b" horiz-adv-x="1312" d="M170 0v1548h129v-612q61 102 170 155.5t227 53.5q127 0 221.5 -49t155 -129t91 -187.5t30.5 -224.5q0 -123 -28.5 -230.5t-89 -186.5t-156 -124t-230.5 -45q-53 0 -109.5 15.5t-108.5 43t-96 69.5t-73 100h-4v-197h-129zM299 561q0 -100 24.5 -187t71.5 -150.5 t119 -100.5t162 -37q82 0 150.5 28.5t119.5 85t81 137.5t30 185q1 17 0 34q0 87 -18 164q-22 91 -69.5 159.5t-121.5 108.5t-172 40q-88 0 -159 -38t-119 -101.5t-73.5 -148.5t-25.5 -179z" />
<glyph unicode="c" d="M100 555q0 117 34 223.5t98.5 187.5t159.5 130t220 49q195 0 313.5 -93.5t149.5 -287.5h-131q-35 125 -119 194.5t-213 69.5q-98 0 -168.5 -41t-115.5 -108.5t-66.5 -152.5t-21.5 -171q0 -88 19.5 -172t65.5 -150.5t116.5 -106.5t170.5 -40q145 0 232.5 80t109.5 219h138 q-16 -92 -54.5 -169t-97.5 -131t-140 -85t-188 -31q-133 0 -229 45t-158.5 124t-93.5 186.5t-31 230.5z" />
<glyph unicode="d" horiz-adv-x="1312" d="M121 555q0 117 29.5 224.5t91 187.5t154.5 129t220 49q119 0 227.5 -53.5t172.5 -155.5v612h129v-1548h-129v197h-4q-29 -57 -73 -99.5t-97.5 -70t-108.5 -43t-110 -15.5q-135 0 -229.5 45t-156 124t-89 186.5t-27.5 230.5zM258 522q0 -104 28.5 -185t81 -137.5t121 -85 t150.5 -28.5q90 0 160.5 37t118 100.5t73 150.5t25.5 187q0 94 -26.5 179t-75 148.5t-118 101.5t-157.5 38q-102 0 -175 -40t-120 -108.5t-69 -159.5q-18 -77 -18 -164q0 -17 1 -34z" />
<glyph unicode="e" d="M96 553q0 123 36 230.5t101.5 187.5t159.5 127t215 47q231 0 362.5 -159t129.5 -460h-867q0 -90 25 -171t71 -139t116.5 -94t162.5 -36q127 0 217 66.5t121 189.5h144q-23 -80 -62 -147.5t-97.5 -117.5t-137 -79t-185.5 -29q-133 0 -229 45t-158.5 124t-93.5 185.5 t-31 229.5zM233 635h728q0 82 -23 153.5t-67 124t-110.5 84t-152.5 31.5t-151.5 -32.5t-111.5 -86t-74 -124t-38 -150.5z" />
<glyph unicode="f" horiz-adv-x="595" d="M43 1006v108h166v176q0 133 53 211t182 78q31 0 56.5 -2t52.5 -8v-117q-43 10 -78 10q-49 0 -76.5 -18.5t-41 -48t-16.5 -67.5t-3 -77v-137h215v-108h-215v-1006h-129v1006h-166z" />
<glyph unicode="g" horiz-adv-x="1312" d="M121 559q0 123 27.5 230.5t89 185.5t155.5 124t230 46q55 0 110 -15.5t108.5 -43t97.5 -70.5t73 -98h4v196h129v-1008q0 -111 -22.5 -213t-81 -178.5t-160 -124t-260.5 -47.5q-121 0 -209 32t-144.5 79t-85 104.5t-30.5 106.5h137q14 -63 47 -102t77 -63t97 -32t111 -8 q133 0 211.5 45t119.5 119t54 166q11 79 10 161v27q-63 -102 -172 -155.5t-228 -53.5q-127 0 -220 49.5t-154.5 129t-91 187t-29.5 224.5zM258 592q-1 -17 -1 -34q0 -87 18 -164q22 -91 69 -159.5t120 -108.5t175 -40q88 0 157.5 38t118 101.5t75 148.5t26.5 179 q0 100 -25.5 187t-73 150.5t-118 100.5t-160.5 37q-82 0 -150.5 -28.5t-121 -85t-81 -137.5t-28.5 -185z" />
<glyph unicode="h" d="M156 0v1548h129v-590q76 82 158.5 134.5t199.5 52.5q102 0 190.5 -36t149.5 -124q41 -59 48 -122.5t7 -133.5v-729h-129v727q0 150 -66.5 225.5t-221.5 75.5q-59 0 -108.5 -18.5t-89.5 -48t-67.5 -68.5t-44.5 -82q-18 -53 -22 -103.5t-4 -107.5v-600h-129z" />
<glyph unicode="i" horiz-adv-x="477" d="M168 1358v190h141v-190h-141zM174 0v1114h129v-1114h-129z" />
<glyph unicode="j" horiz-adv-x="477" d="M10 -315q33 -5 58 -5q19 0 33 3q34 6 53.5 25.5t26.5 51t7 74.5v1280h129v-1261q0 -72 -6 -126.5t-28.5 -91t-66.5 -55t-122 -18.5q-47 0 -84 8v115zM182 1358v190h144v-190h-144z" />
<glyph unicode="k" horiz-adv-x="1075" d="M145 0v1548h129v-962l547 528h176l-415 -401l465 -713h-144l-418 621l-211 -199v-422h-129z" />
<glyph unicode="l" horiz-adv-x="477" d="M174 0v1548h129v-1548h-129z" />
<glyph unicode="m" horiz-adv-x="1789" d="M137 0v1114h129v-168h4q49 96 142.5 147.5t201.5 51.5q78 0 132.5 -17.5t91 -47t62.5 -67.5t42 -83q55 109 149.5 162t213.5 53q115 0 182 -38t104 -99.5t48.5 -141.5t11.5 -164v-702h-129v770q0 121 -50.5 189.5t-187.5 68.5q-72 0 -137.5 -31.5t-114.5 -95.5 q-20 -29 -34.5 -65.5t-23.5 -77.5t-12.5 -82t-3.5 -76v-600h-129v770q0 121 -50 189.5t-187 68.5q-72 0 -137.5 -31.5t-114.5 -95.5q-23 -29 -36 -65.5t-22.5 -77.5t-12.5 -82t-3 -76v-600h-129z" />
<glyph unicode="n" d="M156 0v1114h129v-156q76 82 158.5 134.5t199.5 52.5q102 0 190.5 -36t149.5 -124q41 -59 48 -122.5t7 -133.5v-729h-129v727q0 150 -66.5 225.5t-221.5 75.5q-59 0 -108.5 -18.5t-89.5 -48t-67.5 -68.5t-44.5 -82q-18 -53 -22 -103.5t-4 -107.5v-600h-129z" />
<glyph unicode="o" d="M82 557q0 123 31.5 229.5t96 185.5t162 126t226.5 47q131 0 227.5 -47t161 -125t96 -185.5t31.5 -230.5q0 -133 -37 -240.5t-104.5 -185.5t-162.5 -120t-212 -42q-109 2 -202 39t-162.5 109.5t-110.5 183.5t-41 256zM219 557q0 -102 24.5 -190t71.5 -149.5t119 -96.5 t164 -35q100 0 173 40t118 106.5t66.5 150.5t21.5 174q0 98 -21.5 184t-66.5 149.5t-117 100.5t-174 37q-100 0 -173 -40t-118 -105.5t-66.5 -150.5t-21.5 -175z" />
<glyph unicode="p" horiz-adv-x="1312" d="M170 -438v1552h129v-196h4q29 55 73 98t96 70.5t108.5 43t109.5 15.5q135 0 230.5 -46t156 -124t89 -185.5t28.5 -230.5q0 -117 -30.5 -224.5t-91 -187t-155 -129t-221.5 -49.5q-119 0 -227.5 53.5t-169.5 155.5v-616h-129zM299 553q0 -94 25.5 -179t73.5 -148.5 t119 -101.5t159 -38q98 0 172 40t122 108.5t69 159.5q18 77 18 164v34q0 104 -30 185t-81 137.5t-119.5 85t-150.5 28.5q-90 0 -162 -37t-119 -100.5t-71.5 -150.5t-24.5 -187z" />
<glyph unicode="q" horiz-adv-x="1312" d="M121 559q0 123 27.5 230.5t89 185.5t155.5 124t230 46q55 0 110 -15.5t108.5 -43t97.5 -70.5t73 -98h4v196h129v-1552h-129v616q-63 -102 -172 -155.5t-228 -53.5q-127 0 -220 49.5t-154.5 129t-91 187t-29.5 224.5zM258 522q0 -104 28.5 -185t81 -137.5t121 -85 t150.5 -28.5q90 0 160.5 37t118 100.5t73 150.5t25.5 187q0 94 -26.5 179t-75 148.5t-118 101.5t-157.5 38q-102 0 -175 -40t-120 -108.5t-69 -159.5q-18 -77 -18 -164q0 -17 1 -34z" />
<glyph unicode="r" horiz-adv-x="714" d="M162 0v1114h129v-209h4q53 133 138 186.5t224 53.5v-141h-11q-101 0 -169 -34q-72 -36 -112.5 -98.5t-57 -147.5t-16.5 -177v-547h-129z" />
<glyph unicode="s" horiz-adv-x="1075" d="M98 348h131q31 -143 110 -202.5t224 -59.5q72 0 123 17.5t85 46t51.5 65.5t17.5 78q0 82 -53.5 122t-133.5 62.5t-172 37.5t-172 48t-132 93.5t-52 168.5q0 139 102.5 229.5t288.5 90.5q180 0 293 -81t137 -271h-131q-16 129 -97 182t-204 53t-187.5 -53t-64.5 -139 q0 -74 53.5 -114t132 -64.5t172 -44t172 -55.5t132 -96.5t53.5 -166.5q0 -80 -35 -141.5t-95.5 -102.5t-143 -61.5t-181.5 -20.5q-98 0 -175 30t-130 81t-84 119.5t-35 148.5z" />
<glyph unicode="t" horiz-adv-x="595" d="M43 1006v108h158v309h129v-309h207v-108h-207v-762q0 -41 2 -72t12 -50.5t32.5 -27.5t63.5 -8q27 0 53.5 4t53.5 10v-104q-25 -4 -64 -15.5t-86 -11.5q-96 0 -146 49.5t-50 171.5v816h-158z" />
<glyph unicode="u" d="M156 381v733h129v-731q0 -143 66.5 -220t217.5 -77q80 0 143.5 30.5t106.5 87t66.5 134.5t23.5 170v606h129v-1114h-129v156q-25 -31 -57.5 -64t-74.5 -59.5t-98 -45t-128 -18.5q-113 0 -187.5 32t-120.5 87t-66.5 130t-20.5 163z" />
<glyph unicode="v" horiz-adv-x="1075" d="M37 1114h139l361 -954l362 954h139l-432 -1114h-143z" />
<glyph unicode="w" horiz-adv-x="1552" d="M33 1114h129l287 -950l258 950h145l246 -942l291 942h131l-361 -1114h-137l-244 936h-4l-248 -936h-153z" />
<glyph unicode="x" horiz-adv-x="1075" d="M39 0l428 575l-393 539h157l310 -442l315 442h164l-404 -539l418 -575h-155l-336 481l-346 -481h-158z" />
<glyph unicode="y" horiz-adv-x="1075" d="M39 1114h143l359 -956l356 956h139l-415 -1100q-37 -104 -73 -188t-76 -143.5t-88 -90t-116 -30.5q-35 0 -65.5 4t-57.5 10v121l54 -8q27 -4 55 -4q53 0 88 33.5t57.5 81.5t37 101.5t34.5 90.5z" />
<glyph unicode="z" horiz-adv-x="1075" d="M72 0v115l739 891h-690v108h856v-115l-739 -893h766v-106h-932z" />
<glyph unicode="{" horiz-adv-x="714" d="M96 588v4q61 16 95 38.5t52.5 53.5t23.5 71t5 95v391q0 94 14.5 160.5t50.5 108.5t95.5 59.5t153.5 15.5q-174 -61 -174 -260v-414q0 -61 -7.5 -113.5t-27 -93t-53 -69.5t-91.5 -43v-4q106 -25 142.5 -97.5t36.5 -193.5v-442q0 -111 43 -171.5t145 -89.5v-6 q-94 -2 -157.5 15.5t-101.5 56.5t-53.5 98.5t-15.5 141.5v438q0 98 -32.5 162.5t-143.5 87.5z" />
<glyph unicode="|" horiz-adv-x="477" d="M174 -537v2151h129v-2151h-129z" />
<glyph unicode="}" horiz-adv-x="714" d="M111 1593v4q94 2 157.5 -15t100.5 -55t52 -97.5t15 -141.5v-438q0 -100 34 -164.5t142 -85.5v-4q-59 -18 -94 -41t-53.5 -52.5t-23.5 -70.5t-5 -94v-391q0 -94 -13 -162t-49 -109t-96.5 -59t-152.5 -14q174 59 174 260v411q0 63 6 114.5t25.5 92.5t54.5 71t90 44v4 q-53 12 -88 35.5t-54.5 60.5t-26.5 85t-7 110v442q0 111 -43 170t-145 90z" />
<glyph unicode="~" horiz-adv-x="1419" d="M172 475l53 74q29 39 66 71.5t82 54t102 21.5t123 -23.5t129 -54.5l121 -52q57 -24 100 -23q37 0 69 17.5t59.5 46t49 60t35.5 62.5l86 -74q-25 -43 -53.5 -85t-66 -74.5t-83 -53t-98.5 -20.5q-31 0 -68.5 9t-77.5 23.5t-78 31t-67 26.5q-43 16 -88 39.5t-92 23.5 q-43 0 -78 -19t-62.5 -49t-49.5 -66l-41 -66z" />
<glyph unicode="&#xa1;" horiz-adv-x="714" d="M279 80l30 678h97l30 -678v-481h-157v481zM279 956v189h157v-189h-157z" />
<glyph unicode="&#xa2;" d="M96 555q0 141 39 250.5t107.5 185.5t163 115t202.5 39q35 0 66 -4l61 -8l86 258h105l-97 -287q203 -86 242 -340h-131q-39 147 -152 217l-288 -881q25 -6 51.5 -10t56.5 -4q145 0 232.5 80t109.5 219h137q-12 -84 -49 -158.5t-97 -132t-143 -91.5t-190 -34 q-41 0 -75.5 5.5t-69.5 13.5l-98 -291h-101l107 321q-143 70 -209 212.5t-66 324.5zM233 555q0 -123 42 -235.5t137 -174.5l284 873q-20 6 -41.5 8t-46.5 2q-98 0 -168.5 -41t-117 -108.5t-68 -152.5t-21.5 -171z" />
<glyph unicode="&#xa3;" d="M53 694v90h174q-12 31 -32.5 63t-38 71.5t-29.5 90t-12 113.5q0 84 29.5 156t90 125t149.5 83t210 30q104 0 194.5 -32t157 -92.5t102 -147.5t33.5 -195h-141q-6 170 -98 261t-246 91q-66 0 -128 -17.5t-110.5 -53.5t-77 -89t-28.5 -125q0 -49 13.5 -91t36 -82t48 -79 t45.5 -80h359v-90h-326q10 -35 16.5 -71.5t6.5 -73.5q0 -61 -16.5 -116.5t-46.5 -107t-66.5 -96.5t-75.5 -86l4 -4q41 23 90 41.5t100 18.5q74 0 123 -14.5t92 -30.5q43 -18 84 -33t95 -15q76 0 130 37t103 86l72 -108q-47 -43 -87 -73t-82 -46t-91.5 -24.5t-112.5 -8.5 q-39 0 -81 16l-89 31q-47 18 -99.5 34t-111.5 16q-61 0 -117 -25l-108 -47l-76 125q94 68 160.5 167t66.5 220q0 98 -45 188h-213z" />
<glyph unicode="&#xa4;" d="M57 645q0 96 23.5 172t81.5 154l-92 92l110 113l94 -93q74 55 158 81t174 26t166 -28.5t148 -78.5l96 93l110 -113l-92 -92q55 -80 79 -159t24 -177q0 -90 -27 -162t-76 -145l92 -90l-110 -115l-96 92q-145 -109 -332 -109q-90 0 -166 30t-148 79l-94 -92l-110 115l92 90 q-51 74 -78 149.5t-27 167.5zM213 645q-2 -78 27.5 -147.5t83 -121.5t123 -84t147.5 -32q80 0 151.5 29.5t124 83t84 125t31.5 153.5q0 78 -29.5 147.5t-82 123t-121 84t-146.5 28.5q-84 2 -156.5 -26.5t-126 -82t-83 -125t-27.5 -155.5z" />
<glyph unicode="&#xa5;" d="M8 1548h164l424 -745l434 745h158l-369 -614h240v-117h-311l-80 -141v-90h391v-117h-391v-469h-140v469h-391v117h391v90l-82 141h-309v117h240z" />
<glyph unicode="&#xa6;" horiz-adv-x="477" d="M174 -377v754h129v-754h-129zM174 698v754h129v-754h-129z" />
<glyph unicode="&#xa7;" d="M102 721q0 109 68 188.5t164 120.5q-49 55 -82 111.5t-33 136.5q0 61 24.5 118.5t75 100.5t123 67.5t166.5 24.5q180 0 277.5 -103.5t95.5 -281.5h-117q-4 135 -66.5 202t-199.5 67q-102 0 -172 -50.5t-70 -158.5q0 -72 55.5 -130.5t137.5 -110.5t176 -103.5t176 -108.5 t136.5 -130t54.5 -165q0 -61 -19.5 -110.5t-51.5 -89.5t-75 -71l-90 -65l32 -30q22 -20 42 -49t35.5 -69t15.5 -87q0 -82 -30.5 -144.5t-82 -104.5t-120 -63.5t-146.5 -21.5q-182 0 -286.5 105.5t-112.5 285.5h131q0 -133 67.5 -203.5t202.5 -70.5q45 0 88 12t77 37.5 t54.5 63.5t20.5 87q0 53 -22.5 95.5t-58.5 77t-78 63.5l-81 55l-280 176q-104 66 -163 140.5t-59 185.5zM219 737q0 -41 17.5 -74.5t43 -63.5t58.5 -54.5t63 -44.5l383 -248q35 18 70 41.5t62.5 54.5t44 66t16.5 82q0 41 -18.5 76.5t-48 65.5t-63.5 53.5t-67 41.5l-370 228 q-86 -35 -138.5 -89.5t-52.5 -134.5z" />
<glyph unicode="&#xa8;" horiz-adv-x="714" d="M129 1255v220h139v-220h-139zM471 1255v220h139v-220h-139z" />
<glyph unicode="&#xa9;" horiz-adv-x="1720" d="M45 776q0 168 64.5 316.5t175 258t259 174t318.5 64.5q168 0 316.5 -64.5t259 -174t174 -258t63.5 -316.5q0 -170 -63.5 -318.5t-174 -259t-259 -175t-316.5 -64.5q-170 0 -318.5 64.5t-259 175t-175 259t-64.5 318.5zM174 776q0 -150 51 -278.5t143.5 -225t219.5 -150.5 t274 -54q150 0 275 54t216 150.5t142 225.5t51 278q0 150 -51 279t-142 223t-216 148.5t-275 54.5q-147 0 -274 -54.5t-219.5 -148.5t-143.5 -223t-51 -279zM446 782q0 102 31 186.5t88.5 147t140 98t187.5 35.5q147 0 252.5 -79.5t130.5 -227.5h-117q-16 96 -92 154.5 t-172 58.5q-82 0 -142.5 -28.5t-100.5 -80t-60.5 -119t-20.5 -143.5q0 -72 21.5 -141.5t63.5 -121.5t102.5 -83.5t140.5 -31.5q47 0 91 15t80 45t59.5 69.5t29.5 93.5h117q-6 -74 -40 -133.5t-85 -100.5t-115.5 -62.5t-136.5 -21.5q-104 0 -186 37t-141.5 99.5t-92.5 148.5 t-33 186z" />
<glyph unicode="&#xaa;" horiz-adv-x="716" d="M16 1075q0 170 252 203l117 14q25 2 57.5 6.5t55.5 16.5q20 8 24 29.5t4 37.5q0 61 -42 101.5t-138 40.5q-88 0 -144.5 -34t-66.5 -122h-86q10 119 94 170t205 51q53 0 102.5 -11t84 -35.5t55 -64.5t20.5 -98v-362q0 -45 17.5 -57.5t70.5 4.5v-60q-18 -6 -38.5 -10 t-63.5 0q-43 6 -55.5 34.5t-14.5 65.5q-104 -111 -268 -110q-47 0 -91 11t-78 34.5t-53.5 59.5t-19.5 85zM100 1073q0 -61 51.5 -93t110.5 -32q49 0 96.5 12.5t85 37t60 62.5t22.5 89v104q-53 -20 -107 -27t-110 -12q-96 -6 -152.5 -38.5t-56.5 -102.5z" />
<glyph unicode="&#xab;" d="M244 489v138l313 241v-135l-223 -176l223 -172v-133zM639 489v138l313 241v-135l-223 -176l223 -172v-133z" />
<glyph unicode="&#xac;" horiz-adv-x="1419" d="M172 684v129h1075v-571h-137v442h-938z" />
<glyph unicode="&#xad;" horiz-adv-x="714" d="M86 492v135h545v-135h-545z" />
<glyph unicode="&#xae;" horiz-adv-x="1720" d="M45 776q0 168 64.5 316.5t175 258t259 174t318.5 64.5q168 0 316.5 -64.5t259 -174t174 -258t63.5 -316.5q0 -170 -63.5 -318.5t-174 -259t-259 -175t-316.5 -64.5q-170 0 -318.5 64.5t-259 175t-175 259t-64.5 318.5zM174 776q0 -150 51 -278.5t143.5 -225t219.5 -150.5 t274 -54q150 0 275 54t216 150.5t142 225.5t51 278q0 150 -51 279t-142 223t-216 148.5t-275 54.5q-147 0 -274 -54.5t-219.5 -148.5t-143.5 -223t-51 -279zM559 319v912h397q180 0 252 -64.5t72 -177.5q0 -68 -21.5 -115t-60.5 -75.5t-92 -43t-113 -16.5l277 -420h-135 l-261 420h-202v-420h-113zM672 827h170h102q55 0 104.5 13.5t80 47.5t30.5 103q0 53 -20.5 85t-53 47.5t-72.5 21.5t-81 6h-260v-324z" />
<glyph unicode="&#xaf;" horiz-adv-x="714" d="M49 1317v96h637v-96h-637z" />
<glyph unicode="&#xb0;" horiz-adv-x="860" d="M106 1194q0 66 26 124t70 102t102 70t126 26t125 -26t101 -70t71 -102t27 -124q0 -68 -27 -127t-71 -102t-101 -69t-125 -26t-126 26t-101 69t-70 102t-27 127zM193 1194q0 -49 18 -92t51 -76t76 -51.5t92 -18.5q47 0 90 18.5t76 51.5t52.5 76t19.5 92q0 47 -19.5 90 t-52.5 75t-76 51.5t-92 19.5t-91 -19.5t-75 -51.5t-51 -75t-18 -90z" />
<glyph unicode="&#xb1;" horiz-adv-x="1419" d="M172 0v129h1075v-129h-1075zM172 582v127h473v366h129v-366h473v-127h-473v-367h-129v367h-473z" />
<glyph unicode="&#xb2;" horiz-adv-x="714" d="M33 680q0 63 13 117.5t60 103.5q53 53 108.5 92t109.5 69l101 56q48 27 84 56.5t57.5 67.5t21.5 91q0 90 -63.5 138.5t-153.5 48.5q-51 0 -90 -18.5t-69 -50.5t-44 -74t-12 -87h-97q0 135 87 217t235 82q147 0 225 -72.5t78 -179.5q0 -90 -46 -150.5t-112.5 -103.5 t-141.5 -76.5t-128 -72.5q-49 -35 -87 -77t-42 -109h549v-68h-643z" />
<glyph unicode="&#xb3;" horiz-adv-x="714" d="M25 942h90q0 -102 67.5 -156.5t175.5 -54.5q55 0 100.5 17.5t78 45t50 65.5t15.5 77q-2 55 -26.5 92t-67.5 58.5t-100.5 28.5t-120.5 3v68q61 0 112.5 7t89 26.5t58 53.5t20.5 87q0 84 -62.5 122t-146.5 38q-96 0 -154.5 -54.5t-58.5 -140.5h-88q0 61 22.5 111.5 t74.5 93.5q47 37 103 48t120 11q57 0 108.5 -14t89 -42t60 -70t22.5 -97q0 -147 -139 -205q53 -14 87 -38.5t53.5 -56.5t26.5 -63.5t7 -64.5q0 -115 -82 -192.5t-235 -83.5q-86 0 -148.5 14t-104.5 47t-65.5 86t-31.5 133z" />
<glyph unicode="&#xb4;" horiz-adv-x="714" d="M233 1235l240 299h166l-295 -299h-111z" />
<glyph unicode="&#xb5;" d="M156 -438v1552h129v-731q0 -143 66.5 -220t217.5 -77q80 0 143.5 30.5t106.5 87t66.5 134.5t23.5 170v606h129v-1114h-129v156q-25 -31 -57.5 -64t-74.5 -59.5t-98 -45t-128 -18.5q-90 0 -156.5 21.5t-109.5 48.5v-477h-129z" />
<glyph unicode="&#xb6;" horiz-adv-x="1396" d="M141 1130q0 203 126 310.5t354 107.5h466v-1861h-129v1718h-274v-1718h-129v1036q-82 0 -156.5 31.5t-132 88t-91.5 130t-34 157.5z" />
<glyph unicode="&#xb7;" horiz-adv-x="595" d="M193 754q0 41 32.5 71.5t73.5 30.5q43 0 72.5 -30.5t29.5 -71.5q0 -45 -29.5 -76t-72.5 -31t-74.5 31t-31.5 76z" />
<glyph unicode="&#xb8;" horiz-adv-x="714" d="M117 -403l30 63q35 -10 69 -21.5t71 -11.5q23 0 47 6.5t45.5 17.5t35 30.5t13.5 48.5q0 43 -34 63.5t-75 20.5q-23 0 -46 -7l-48 -12l-32 29l131 176h82l-101 -127l38.5 8t39.5 4q72 0 116 -34.5t50 -75.5q10 -59 -6.5 -101.5t-50 -68t-82 -37.5t-99.5 -12 q-49 0 -98 11.5t-96 29.5z" />
<glyph unicode="&#xb9;" horiz-adv-x="714" d="M186 1356v55q57 2 103.5 8t79 24.5t56.5 53.5t36 92h69v-909h-90v676h-254z" />
<glyph unicode="&#xba;" horiz-adv-x="716" d="M25 1237q0 72 20.5 136.5t61 112.5t104 75.5t147.5 27.5t147.5 -27.5t105.5 -75.5t62.5 -112.5t20.5 -136.5q0 -160 -91 -256t-245 -96q-68 2 -129 24.5t-106 66.5t-71.5 108.5t-26.5 152.5zM106 1237q0 -125 66 -207t186 -82q68 0 115 24.5t78 65.5t45 93.5t14 105.5 q0 57 -13 110.5t-45 92.5t-79 61.5t-115 22.5q-66 0 -112.5 -24.5t-78.5 -65.5t-46.5 -92.5t-14.5 -104.5z" />
<glyph unicode="&#xbb;" d="M244 252v135l223 176l-223 172v133l313 -237v-135zM639 252v135l223 176l-223 172v133l313 -237v-135z" />
<glyph unicode="&#xbc;" horiz-adv-x="1792" d="M86 1356v55q55 2 101 8t80 24.5t57.5 53.5t33.5 92h72v-909h-90v676h-254zM360 -31l957 1547h108l-954 -1547h-111zM1032 223v72l459 606h82v-606h135v-72h-135v-223h-92v223h-449zM1120 295h361v481z" />
<glyph unicode="&#xbd;" horiz-adv-x="1792" d="M86 1356v55q55 2 101 8t80 24.5t57.5 53.5t33.5 92h72v-909h-90v676h-254zM274 -31l957 1547h108l-954 -1547h-111zM1057 0q0 66 13 119t60 102q53 53 108.5 92t109.5 70l101 56q48 26 83 55.5t56.5 67.5t21.5 91q0 90 -63.5 139.5t-153.5 49.5q-49 0 -89 -18.5 t-69 -51.5t-44 -75t-13 -87h-95q0 135 87 217t235 82q147 0 225 -72.5t78 -179.5q0 -90 -46 -150.5t-113.5 -103.5t-141.5 -76.5t-127 -72.5q-49 -35 -87 -77t-42 -107h549v-70h-643z" />
<glyph unicode="&#xbe;" horiz-adv-x="1792" d="M86 942h90q0 -102 67.5 -156.5t178.5 -54.5q53 0 98 17.5t79 45t51.5 65.5t13.5 77q-2 55 -27 92t-68 58.5t-99 28.5t-122 3v68q63 0 114.5 7t89.5 26.5t58.5 53.5t20.5 87q0 84 -62.5 122t-146.5 38q-96 0 -154.5 -54.5t-58.5 -140.5h-88q0 61 22.5 111.5t71.5 93.5 q47 37 104.5 48t118.5 11q59 0 110.5 -14t89.5 -42t60.5 -70t22.5 -97q0 -147 -139 -205q53 -14 85.5 -38.5t52 -56.5t28 -63.5t8.5 -64.5q0 -115 -82 -192.5t-238 -83.5q-86 0 -148.5 14t-104.5 47t-65.5 86t-31.5 133zM446 -31l957 1547h108l-954 -1547h-111zM1032 223v72 l459 606h82v-606h135v-72h-135v-223h-92v223h-449zM1120 295h361v481z" />
<glyph unicode="&#xbf;" horiz-adv-x="1075" d="M59 -41q0 92 42 160.5t101.5 127t125 117t112.5 134.5q37 55 41 122.5t4 133.5h125q2 -119 -16.5 -216.5t-101.5 -185.5q-47 -49 -98.5 -96t-95.5 -95t-71.5 -100.5t-27.5 -111.5t22.5 -109.5t65.5 -88.5t105.5 -59.5t139.5 -21.5q80 0 142.5 29t104.5 78t63.5 114.5 t19.5 143.5h131q8 -109 -23.5 -197t-95 -151.5t-151.5 -97t-195 -33.5q-109 0 -195.5 28.5t-147 80.5t-93.5 128t-33 166zM467 954v191h156v-191h-156z" />
<glyph unicode="&#xc0;" horiz-adv-x="1433" d="M33 0l608 1548h166l594 -1548h-152l-178 485h-706l-183 -485h-149zM416 610h606l-303 813zM457 1968h166l239 -299h-108z" />
<glyph unicode="&#xc1;" horiz-adv-x="1433" d="M33 0l608 1548h166l594 -1548h-152l-178 485h-706l-183 -485h-149zM416 610h606l-303 813zM594 1669l237 299h166l-295 -299h-108z" />
<glyph unicode="&#xc2;" horiz-adv-x="1433" d="M33 0l608 1548h166l594 -1548h-152l-178 485h-706l-183 -485h-149zM412 1669l243 299h146l241 -299h-139l-176 219l-176 -219h-139zM416 610h606l-303 813z" />
<glyph unicode="&#xc3;" horiz-adv-x="1433" d="M33 0l608 1548h166l594 -1548h-152l-178 485h-706l-183 -485h-149zM393 1694q4 39 15.5 70.5t27.5 56.5q33 45 83 67.5t108 9.5q29 -6 63 -21l70 -31q35 -15 68.5 -27.5t62.5 -12.5q47 0 66.5 35t27.5 72h82q-2 -20 -8 -41t-10 -39q-23 -53 -60 -91t-98 -38 q-45 0 -85 14.5t-79 32.5t-77 33.5t-75 15.5q-49 0 -70.5 -32.5t-33.5 -73.5h-78zM416 610h606l-303 813z" />
<glyph unicode="&#xc4;" horiz-adv-x="1433" d="M33 0l608 1548h166l594 -1548h-152l-178 485h-706l-183 -485h-149zM416 610h606l-303 813zM487 1690v219h142v-219h-142zM829 1690v219h142v-219h-142z" />
<glyph unicode="&#xc5;" horiz-adv-x="1433" d="M33 0l608 1548h166l594 -1548h-152l-178 485h-706l-183 -485h-149zM416 610h606l-303 813zM547 1890q0 43 17.5 82t47 69t68.5 47t82 17t81 -17t67.5 -47t47 -69t17.5 -82t-17.5 -82t-47 -67.5t-67.5 -46t-81 -17.5t-83 17.5t-68.5 46t-46 67.5t-17.5 82zM616 1890 q0 -57 44.5 -99t101.5 -42q55 0 98 43t43 98t-42 99.5t-99 44.5q-59 0 -102.5 -43.5t-43.5 -100.5z" />
<glyph unicode="&#xc6;" horiz-adv-x="2150" d="M10 0l674 1548h1354v-125h-877v-559h799v-125h-799v-614h903v-125h-1048v485h-654l-204 -485h-148zM424 610h592v813h-246z" />
<glyph unicode="&#xc7;" horiz-adv-x="1552" d="M102 774q0 221 55.5 376t152 253t228.5 142t285 44q119 0 221.5 -30.5t180.5 -93t129 -154.5t69 -211h-149q-45 197 -168 280.5t-322 83.5q-139 0 -240.5 -56t-167 -150.5t-96 -218.5t-30.5 -261q0 -129 26.5 -254t89 -222t168 -157.5t265.5 -60.5q98 0 180 31.5 t143.5 89t102.5 135.5t63 170h154q-27 -111 -74 -208t-125 -173t-188.5 -121t-259.5 -47l-70 -88l38 8q19 4 40 4q70 0 114 -34.5t50 -75.5q12 -59 -4.5 -101.5t-51 -68t-82 -37.5t-98.5 -12q-49 0 -98 11t-98 30l32 63q35 -10 69 -21.5t69 -11.5q25 0 49 6.5t45.5 17.5 t35 30.5t13.5 48.5q0 43 -34 63.5t-75 20.5q-23 0 -46 -7l-48 -12l-33 29l103 137q-164 10 -281 80t-189.5 180.5t-107.5 251.5t-35 301z" />
<glyph unicode="&#xc8;" horiz-adv-x="1312" d="M174 0v1548h1030v-125h-885v-559h799v-125h-799v-614h906v-125h-1051zM395 1968h168l240 -299h-111z" />
<glyph unicode="&#xc9;" horiz-adv-x="1312" d="M174 0v1548h1030v-125h-885v-559h799v-125h-799v-614h906v-125h-1051zM532 1669l240 299h166l-295 -299h-111z" />
<glyph unicode="&#xca;" horiz-adv-x="1312" d="M174 0v1548h1030v-125h-885v-559h799v-125h-799v-614h906v-125h-1051zM350 1669l246 299h143l244 -299h-139l-176 219l-179 -219h-139z" />
<glyph unicode="&#xcb;" horiz-adv-x="1312" d="M174 0v1548h1030v-125h-885v-559h799v-125h-799v-614h906v-125h-1051zM428 1690v219h139v-219h-139zM770 1690v219h139v-219h-139z" />
<glyph unicode="&#xcc;" horiz-adv-x="595" d="M39 1968h168l237 -299h-108zM225 0v1548h148v-1548h-148z" />
<glyph unicode="&#xcd;" horiz-adv-x="595" d="M131 1669l240 299h164l-293 -299h-111zM225 0v1548h148v-1548h-148z" />
<glyph unicode="&#xce;" horiz-adv-x="595" d="M-51 1669l244 299h145l244 -299h-142l-176 219l-176 -219h-139zM225 0v1548h148v-1548h-148z" />
<glyph unicode="&#xcf;" horiz-adv-x="595" d="M27 1690v219h139v-219h-139zM225 0v1548h148v-1548h-148zM369 1690v219h139v-219h-139z" />
<glyph unicode="&#xd0;" horiz-adv-x="1552" d="M20 760v125h154v663h528q66 0 128.5 -3t123 -15t116.5 -36t110 -62q78 -55 128 -136.5t78.5 -170.5t40 -180t11.5 -169t-9.5 -156.5t-31 -155.5t-57 -146.5t-89.5 -129.5q-53 -59 -116.5 -96t-133 -57.5t-145.5 -27.5t-154 -7h-528v760h-154zM319 125h353q98 0 185 11 t177 61q78 37 127 104.5t79 145t41 163.5t11 166q0 84 -10 171t-41 166t-82 144.5t-133 108.5q-70 37 -164 47t-190 10h-353v-538h349v-125h-349v-635z" />
<glyph unicode="&#xd1;" horiz-adv-x="1552" d="M170 0v1548h166l895 -1351h4v1351h145v-1548h-170l-891 1350h-4v-1350h-145zM455 1694q4 39 14 70.5t29 56.5q31 45 82 67.5t106 9.5q31 -6 65 -21l69 -31l69 -27.5t61 -12.5q47 0 66.5 35t27.5 72h82q-2 -20 -7 -41l-9 -39q-25 -53 -60.5 -91t-99.5 -38q-45 0 -85 14.5 t-78.5 32.5t-75.5 33.5t-74 15.5q-49 0 -70.5 -32.5t-36.5 -73.5h-75z" />
<glyph unicode="&#xd2;" horiz-adv-x="1671" d="M115 772q0 170 46 318.5t136 259t223 175t307 64.5q180 0 317.5 -63.5t228.5 -174t137 -260t46 -319.5q0 -168 -46 -315.5t-136 -258t-225 -175t-315 -64.5q-178 0 -313.5 64.5t-225.5 175t-135 258t-45 315.5zM260 772q0 -137 34 -262t103.5 -219t178 -150.5 t260.5 -56.5t260 57.5t177.5 151.5t103.5 219t34 260q0 162 -40 290t-115.5 218t-183 137t-241.5 47q-147 0 -255.5 -58t-178 -153.5t-103.5 -220.5t-34 -260zM575 1968h168l240 -299h-111z" />
<glyph unicode="&#xd3;" horiz-adv-x="1671" d="M115 772q0 170 46 318.5t136 259t223 175t307 64.5q180 0 317.5 -63.5t228.5 -174t137 -260t46 -319.5q0 -168 -46 -315.5t-136 -258t-225 -175t-315 -64.5q-178 0 -313.5 64.5t-225.5 175t-135 258t-45 315.5zM260 772q0 -137 34 -262t103.5 -219t178 -150.5 t260.5 -56.5t260 57.5t177.5 151.5t103.5 219t34 260q0 162 -40 290t-115.5 218t-183 137t-241.5 47q-147 0 -255.5 -58t-178 -153.5t-103.5 -220.5t-34 -260zM715 1669l237 299h166l-295 -299h-108z" />
<glyph unicode="&#xd4;" horiz-adv-x="1671" d="M115 772q0 170 46 318.5t136 259t223 175t307 64.5q180 0 317.5 -63.5t228.5 -174t137 -260t46 -319.5q0 -168 -46 -315.5t-136 -258t-225 -175t-315 -64.5q-178 0 -313.5 64.5t-225.5 175t-135 258t-45 315.5zM260 772q0 -137 34 -262t103.5 -219t178 -150.5 t260.5 -56.5t260 57.5t177.5 151.5t103.5 219t34 260q0 162 -40 290t-115.5 218t-183 137t-241.5 47q-147 0 -255.5 -58t-178 -153.5t-103.5 -220.5t-34 -260zM530 1669l246 299h144l243 -299h-139l-176 219l-176 -219h-142z" />
<glyph unicode="&#xd5;" horiz-adv-x="1671" d="M115 772q0 170 46 318.5t136 259t223 175t307 64.5q180 0 317.5 -63.5t228.5 -174t137 -260t46 -319.5q0 -168 -46 -315.5t-136 -258t-225 -175t-315 -64.5q-178 0 -313.5 64.5t-225.5 175t-135 258t-45 315.5zM260 772q0 -137 34 -262t103.5 -219t178 -150.5 t260.5 -56.5t260 57.5t177.5 151.5t103.5 219t34 260q0 162 -40 290t-115.5 218t-183 137t-241.5 47q-147 0 -255.5 -58t-178 -153.5t-103.5 -220.5t-34 -260zM514 1694q4 39 15.5 70.5t27.5 56.5q33 45 83 67.5t105 9.5q31 -6 66 -21l70 -31q35 -15 68.5 -27.5t62.5 -12.5 q47 0 66.5 35t27.5 72h82q-2 -20 -8 -41l-11 -39q-23 -53 -59.5 -91t-97.5 -38q-47 0 -86 14.5t-78 32.5t-77 33.5t-75 15.5q-49 0 -70.5 -32.5t-33.5 -73.5h-78z" />
<glyph unicode="&#xd6;" horiz-adv-x="1671" d="M115 772q0 170 46 318.5t136 259t223 175t307 64.5q180 0 317.5 -63.5t228.5 -174t137 -260t46 -319.5q0 -168 -46 -315.5t-136 -258t-225 -175t-315 -64.5q-178 0 -313.5 64.5t-225.5 175t-135 258t-45 315.5zM260 772q0 -137 34 -262t103.5 -219t178 -150.5 t260.5 -56.5t260 57.5t177.5 151.5t103.5 219t34 260q0 162 -40 290t-115.5 218t-183 137t-241.5 47q-147 0 -255.5 -58t-178 -153.5t-103.5 -220.5t-34 -260zM608 1690v219h140v-219h-140zM950 1690v219h140v-219h-140z" />
<glyph unicode="&#xd7;" horiz-adv-x="1419" d="M178 90l455 455l-455 452l80 78l455 -452l450 452l80 -78l-452 -452l452 -455l-80 -78l-450 453l-455 -453z" />
<glyph unicode="&#xd8;" horiz-adv-x="1671" d="M90 -6l193 217q-90 109 -133.5 252t-43.5 309q0 172 49.5 321.5t140.5 259t223 173t302 63.5q145 0 271.5 -44t228.5 -142l178 203l84 -74l-188 -215q63 -70 109 -211t46 -334q0 -168 -46 -315.5t-136 -258t-226 -175t-315 -64.5q-147 0 -264 44t-207 126l-182 -209z M254 772q0 -129 28.5 -244.5t92.5 -212.5l856 983q-63 70 -159.5 118t-246.5 48q-147 0 -255.5 -58t-179.5 -154.5t-103.5 -221.5t-32.5 -258zM444 229q70 -68 165.5 -106.5t219.5 -38.5q152 0 260.5 56.5t178 151.5t103.5 220t34 260q0 115 -24.5 226.5t-82.5 205.5z" />
<glyph unicode="&#xd9;" horiz-adv-x="1552" d="M176 584v964h148v-921q0 -289 106.5 -416t345.5 -127q125 0 212 34t141.5 101.5t78 167.5t23.5 240v921h145v-964q0 -305 -149.5 -465t-450.5 -160q-303 0 -451.5 164t-148.5 461zM516 1968h168l238 -299h-109z" />
<glyph unicode="&#xda;" horiz-adv-x="1552" d="M176 584v964h148v-921q0 -289 106.5 -416t345.5 -127q125 0 212 34t141.5 101.5t78 167.5t23.5 240v921h145v-964q0 -305 -149.5 -465t-450.5 -160q-303 0 -451.5 164t-148.5 461zM653 1669l240 299h166l-295 -299h-111z" />
<glyph unicode="&#xdb;" horiz-adv-x="1552" d="M176 584v964h148v-921q0 -289 106.5 -416t345.5 -127q125 0 212 34t141.5 101.5t78 167.5t23.5 240v921h145v-964q0 -305 -149.5 -465t-450.5 -160q-303 0 -451.5 164t-148.5 461zM471 1669l246 299h143l244 -299h-141l-177 219l-176 -219h-139z" />
<glyph unicode="&#xdc;" horiz-adv-x="1552" d="M176 584v964h148v-921q0 -289 106.5 -416t345.5 -127q125 0 212 34t141.5 101.5t78 167.5t23.5 240v921h145v-964q0 -305 -149.5 -465t-450.5 -160q-303 0 -451.5 164t-148.5 461zM549 1690v219h139v-219h-139zM891 1690v219h139v-219h-139z" />
<glyph unicode="&#xdd;" horiz-adv-x="1312" d="M27 1548h166l456 -745l467 745h170l-561 -872v-676h-147v664zM532 1669l240 299h166l-295 -299h-111z" />
<glyph unicode="&#xde;" horiz-adv-x="1312" d="M168 0v1548h145v-323h420q152 0 249 -34t154.5 -94.5t80 -139t22.5 -164.5q0 -129 -53 -212t-137 -132.5t-189.5 -69t-214.5 -19.5h-332v-360h-145zM313 485h336q104 0 185 13.5t138.5 49.5t88.5 96.5t31 160.5q0 145 -95.5 221t-304.5 76h-379v-617z" />
<glyph unicode="&#xdf;" horiz-adv-x="1075" d="M113 0v1169q0 201 98 305.5t303 104.5q92 0 169 -28.5t131 -80t85 -125t31 -167.5q0 -102 -50.5 -176t-131.5 -136q61 -20 106 -60t73.5 -92t44 -111.5t15.5 -121.5q0 -252 -119.5 -382t-335.5 -130q-47 0 -77 13v112q78 -14 149.5 1.5t125.5 56.5t87 110.5t33 165.5 q0 205 -95.5 292t-299.5 87v106q70 2 132 16.5t107 45.5t71 81t26 124q0 121 -63.5 201.5t-207.5 80.5q-94 0 -149.5 -22.5t-84 -64.5t-36.5 -100t-8 -128v-1147h-129z" />
<glyph unicode="&#xe0;" d="M98 291q0 283 389 336l181 22q35 4 86 13.5t82 23.5q33 14 41 50t8 67q0 98 -63.5 161.5t-215.5 63.5q-66 0 -122 -12t-98 -41t-68.5 -77t-34.5 -122h-131q6 98 43.5 169t99 115t142.5 64.5t171 20.5q84 0 159 -18.5t129 -58.5t86 -106.5t32 -162.5v-609q0 -74 26.5 -94 t108.5 8v-100q-16 -4 -45 -12t-57 -8q-29 0 -58 6q-33 4 -52 20.5t-30.5 39t-15.5 49t-4 57.5q-82 -90 -187.5 -138.5t-228.5 -48.5q-74 0 -141.5 19.5t-118.5 60.5t-82 100.5t-31 141.5zM238 287q0 -53 19 -90t53 -61.5t78 -37t89 -12.5q78 0 150.5 19.5t130 59.5 t92.5 101.5t35 145.5v174q-82 -35 -166 -46.5t-168 -17.5q-150 -10 -231.5 -66t-81.5 -169zM338 1534h168l237 -299h-108z" />
<glyph unicode="&#xe1;" d="M98 291q0 283 389 336l181 22q35 4 86 13.5t82 23.5q33 14 41 50t8 67q0 98 -63.5 161.5t-215.5 63.5q-66 0 -122 -12t-98 -41t-68.5 -77t-34.5 -122h-131q6 98 43.5 169t99 115t142.5 64.5t171 20.5q84 0 159 -18.5t129 -58.5t86 -106.5t32 -162.5v-609q0 -74 26.5 -94 t108.5 8v-100q-16 -4 -45 -12t-57 -8q-29 0 -58 6q-33 4 -52 20.5t-30.5 39t-15.5 49t-4 57.5q-82 -90 -187.5 -138.5t-228.5 -48.5q-74 0 -141.5 19.5t-118.5 60.5t-82 100.5t-31 141.5zM238 287q0 -53 19 -90t53 -61.5t78 -37t89 -12.5q78 0 150.5 19.5t130 59.5 t92.5 101.5t35 145.5v174q-82 -35 -166 -46.5t-168 -17.5q-150 -10 -231.5 -66t-81.5 -169zM475 1235l240 299h164l-293 -299h-111z" />
<glyph unicode="&#xe2;" d="M98 291q0 283 389 336l181 22q35 4 86 13.5t82 23.5q33 14 41 50t8 67q0 98 -63.5 161.5t-215.5 63.5q-66 0 -122 -12t-98 -41t-68.5 -77t-34.5 -122h-131q6 98 43.5 169t99 115t142.5 64.5t171 20.5q84 0 159 -18.5t129 -58.5t86 -106.5t32 -162.5v-609q0 -74 26.5 -94 t108.5 8v-100q-16 -4 -45 -12t-57 -8q-29 0 -58 6q-33 4 -52 20.5t-30.5 39t-15.5 49t-4 57.5q-82 -90 -187.5 -138.5t-228.5 -48.5q-74 0 -141.5 19.5t-118.5 60.5t-82 100.5t-31 141.5zM238 287q0 -53 19 -90t53 -61.5t78 -37t89 -12.5q78 0 150.5 19.5t130 59.5 t92.5 101.5t35 145.5v174q-82 -35 -166 -46.5t-168 -17.5q-150 -10 -231.5 -66t-81.5 -169zM293 1235l244 299h145l244 -299h-142l-176 219l-176 -219h-139z" />
<glyph unicode="&#xe3;" d="M98 291q0 283 389 336l181 22q35 4 86 13.5t82 23.5q33 14 41 50t8 67q0 98 -63.5 161.5t-215.5 63.5q-66 0 -122 -12t-98 -41t-68.5 -77t-34.5 -122h-131q6 98 43.5 169t99 115t142.5 64.5t171 20.5q84 0 159 -18.5t129 -58.5t86 -106.5t32 -162.5v-609q0 -74 26.5 -94 t108.5 8v-100q-16 -4 -45 -12t-57 -8q-29 0 -58 6q-33 4 -52 20.5t-30.5 39t-15.5 49t-4 57.5q-82 -90 -187.5 -138.5t-228.5 -48.5q-74 0 -141.5 19.5t-118.5 60.5t-82 100.5t-31 141.5zM238 287q0 -53 19 -90t53 -61.5t78 -37t89 -12.5q78 0 150.5 19.5t130 59.5 t92.5 101.5t35 145.5v174q-82 -35 -166 -46.5t-168 -17.5q-150 -10 -231.5 -66t-81.5 -169zM274 1260q4 39 15.5 70.5t27.5 55.5q33 45 83.5 68t107.5 10q29 -6 63 -21l71 -32q36 -16 68.5 -27.5t61.5 -11.5q47 0 66.5 35t27.5 72h82q-2 -20 -7 -41t-9 -41 q-25 -51 -61.5 -89t-98.5 -38q-45 0 -85 14t-79 32.5t-75.5 34t-73.5 15.5q-49 0 -71.5 -33t-35.5 -73h-78z" />
<glyph unicode="&#xe4;" d="M98 291q0 283 389 336l181 22q35 4 86 13.5t82 23.5q33 14 41 50t8 67q0 98 -63.5 161.5t-215.5 63.5q-66 0 -122 -12t-98 -41t-68.5 -77t-34.5 -122h-131q6 98 43.5 169t99 115t142.5 64.5t171 20.5q84 0 159 -18.5t129 -58.5t86 -106.5t32 -162.5v-609q0 -74 26.5 -94 t108.5 8v-100q-16 -4 -45 -12t-57 -8q-29 0 -58 6q-33 4 -52 20.5t-30.5 39t-15.5 49t-4 57.5q-82 -90 -187.5 -138.5t-228.5 -48.5q-74 0 -141.5 19.5t-118.5 60.5t-82 100.5t-31 141.5zM238 287q0 -53 19 -90t53 -61.5t78 -37t89 -12.5q78 0 150.5 19.5t130 59.5 t92.5 101.5t35 145.5v174q-82 -35 -166 -46.5t-168 -17.5q-150 -10 -231.5 -66t-81.5 -169zM371 1255v220h139v-220h-139zM713 1255v220h139v-220h-139z" />
<glyph unicode="&#xe5;" d="M98 291q0 283 389 336l181 22q35 4 86 13.5t82 23.5q33 14 41 50t8 67q0 98 -63.5 161.5t-215.5 63.5q-66 0 -122 -12t-98 -41t-68.5 -77t-34.5 -122h-131q6 98 43.5 169t99 115t142.5 64.5t171 20.5q84 0 159 -18.5t129 -58.5t86 -106.5t32 -162.5v-609q0 -74 26.5 -94 t108.5 8v-100q-16 -4 -45 -12t-57 -8q-29 0 -58 6q-33 4 -52 20.5t-30.5 39t-15.5 49t-4 57.5q-82 -90 -187.5 -138.5t-228.5 -48.5q-74 0 -141.5 19.5t-118.5 60.5t-82 100.5t-31 141.5zM238 287q0 -53 19 -90t53 -61.5t78 -37t89 -12.5q78 0 150.5 19.5t130 59.5 t92.5 101.5t35 145.5v174q-82 -35 -166 -46.5t-168 -17.5q-150 -10 -231.5 -66t-81.5 -169zM385 1456q0 43 17.5 82t47 68.5t68.5 47t82 17.5t82 -17.5t67.5 -47t46 -68.5t17.5 -82t-17.5 -82t-46 -67.5t-67.5 -46t-82 -17.5t-83 17.5t-68.5 46t-46 67.5t-17.5 82zM457 1456 q0 -59 44 -100t99 -41t98 43t43 98t-42 99t-99 44t-100 -43t-43 -100z" />
<glyph unicode="&#xe6;" horiz-adv-x="1910" d="M84 285q0 145 95 236t292 114l123 12q84 8 133 19.5t74.5 26t35 38t9.5 53.5q0 143 -61.5 193.5t-211.5 50.5q-129 0 -209.5 -55t-99.5 -191h-133q6 94 42 163t95.5 113t136 65.5t164.5 21.5q53 0 112.5 -8.5t114 -29t97.5 -55t65 -91.5q74 109 168.5 146.5t221.5 37.5 q141 0 232 -49t144.5 -133t75 -196t21.5 -241h-838q0 -90 20.5 -171t65.5 -139t114.5 -94t168.5 -36q129 0 211 68.5t114 189.5h135q-43 -180 -161.5 -277.5t-309.5 -97.5q-145 0 -249.5 59.5t-180.5 186.5q-31 -43 -68.5 -86t-92 -79t-129 -58.5t-179.5 -22.5 q-74 0 -139 18.5t-114.5 57.5t-77 98.5t-27.5 141.5zM221 303q0 -111 62.5 -164t171.5 -53q195 0 293 98.5t98 253.5v152q-53 -29 -118.5 -41t-134.5 -20.5l-135.5 -17.5t-118.5 -31.5t-85 -64.5t-33 -112zM983 635h700q0 80 -21.5 151.5t-63.5 125t-106.5 85t-148.5 31.5 q-100 0 -169.5 -40t-111.5 -99.5t-60.5 -128t-18.5 -125.5z" />
<glyph unicode="&#xe7;" d="M100 555q0 117 34 223.5t98.5 187.5t159.5 130t220 49q195 0 313.5 -93.5t149.5 -287.5h-131q-35 125 -119 194.5t-213 69.5q-98 0 -168.5 -41t-115.5 -108.5t-66.5 -152.5t-21.5 -171q0 -88 19.5 -172t65.5 -150.5t116.5 -106.5t170.5 -40q145 0 232.5 80t109.5 219h138 q-16 -90 -53.5 -166t-94.5 -130t-137 -86t-184 -34l-76 -96l38 8q19 4 38 4q72 0 115.5 -34.5t49.5 -75.5q12 -59 -4 -101.5t-51 -68t-82 -37.5t-98 -12q-49 0 -99.5 11t-97.5 30l33 63q35 -10 67.5 -21.5t69.5 -11.5q25 0 49.5 6.5t46 17.5t35 30.5t13.5 48.5 q0 43 -34 63.5t-75 20.5q-25 0 -48 -7l-46 -12l-33 29l113 151q-117 12 -201 60.5t-138 126.5t-81 177t-27 216z" />
<glyph unicode="&#xe8;" d="M96 553q0 123 36 230.5t101.5 187.5t159.5 127t215 47q231 0 362.5 -159t129.5 -460h-867q0 -90 25 -171t71 -139t116.5 -94t162.5 -36q127 0 217 66.5t121 189.5h144q-23 -80 -62 -147.5t-97.5 -117.5t-137 -79t-185.5 -29q-133 0 -229 45t-158.5 124t-93.5 185.5 t-31 229.5zM233 635h728q0 82 -23 153.5t-67 124t-110.5 84t-152.5 31.5t-151.5 -32.5t-111.5 -86t-74 -124t-38 -150.5zM338 1534h168l237 -299h-108z" />
<glyph unicode="&#xe9;" d="M96 553q0 123 36 230.5t101.5 187.5t159.5 127t215 47q231 0 362.5 -159t129.5 -460h-867q0 -90 25 -171t71 -139t116.5 -94t162.5 -36q127 0 217 66.5t121 189.5h144q-23 -80 -62 -147.5t-97.5 -117.5t-137 -79t-185.5 -29q-133 0 -229 45t-158.5 124t-93.5 185.5 t-31 229.5zM233 635h728q0 82 -23 153.5t-67 124t-110.5 84t-152.5 31.5t-151.5 -32.5t-111.5 -86t-74 -124t-38 -150.5zM475 1235l240 299h164l-293 -299h-111z" />
<glyph unicode="&#xea;" d="M96 553q0 123 36 230.5t101.5 187.5t159.5 127t215 47q231 0 362.5 -159t129.5 -460h-867q0 -90 25 -171t71 -139t116.5 -94t162.5 -36q127 0 217 66.5t121 189.5h144q-23 -80 -62 -147.5t-97.5 -117.5t-137 -79t-185.5 -29q-133 0 -229 45t-158.5 124t-93.5 185.5 t-31 229.5zM233 635h728q0 82 -23 153.5t-67 124t-110.5 84t-152.5 31.5t-151.5 -32.5t-111.5 -86t-74 -124t-38 -150.5zM293 1235l244 299h145l244 -299h-142l-176 219l-176 -219h-139z" />
<glyph unicode="&#xeb;" d="M96 553q0 123 36 230.5t101.5 187.5t159.5 127t215 47q231 0 362.5 -159t129.5 -460h-867q0 -90 25 -171t71 -139t116.5 -94t162.5 -36q127 0 217 66.5t121 189.5h144q-23 -80 -62 -147.5t-97.5 -117.5t-137 -79t-185.5 -29q-133 0 -229 45t-158.5 124t-93.5 185.5 t-31 229.5zM233 635h728q0 82 -23 153.5t-67 124t-110.5 84t-152.5 31.5t-151.5 -32.5t-111.5 -86t-74 -124t-38 -150.5zM371 1255v220h139v-220h-139zM713 1255v220h139v-220h-139z" />
<glyph unicode="&#xec;" horiz-adv-x="477" d="M-20 1534h165l240 -299h-111zM168 0v1114h129v-1114h-129z" />
<glyph unicode="&#xed;" horiz-adv-x="477" d="M72 1235l237 299h166l-295 -299h-108zM168 0v1114h129v-1114h-129z" />
<glyph unicode="&#xee;" horiz-adv-x="477" d="M-113 1235l246 299h143l244 -299h-139l-176 219l-176 -219h-142zM168 0v1114h129v-1114h-129z" />
<glyph unicode="&#xef;" horiz-adv-x="477" d="M-35 1255v220h139v-220h-139zM168 0v1114h129v-1114h-129zM307 1255v220h139v-220h-139z" />
<glyph unicode="&#xf0;" d="M82 557q0 111 28.5 215.5t90 187t159 134t230.5 51.5q53 0 94 -5t76 -15.5t69.5 -30t73.5 -50.5q-39 111 -86 188t-110 134l-132 -106l-79 51l139 112q-37 27 -80 49.5t-92 45.5l88 71q45 -20 87 -43.5t83 -52.5l119 96l78 -53l-127 -104q152 -141 237.5 -363.5 t85.5 -511.5q0 -133 -37 -240.5t-104.5 -185.5t-162.5 -120t-212 -42q-109 2 -202 39t-162.5 109.5t-110.5 183.5t-41 256zM219 557q0 -102 24.5 -190t71.5 -149.5t119 -96.5t164 -35q100 0 173 40t118 106.5t66.5 150.5t21.5 174q0 98 -21.5 184t-66.5 149.5t-117 100.5 t-174 37q-100 0 -173 -40t-118 -105.5t-66.5 -150.5t-21.5 -175z" />
<glyph unicode="&#xf1;" d="M156 0v1114h129v-156q76 82 158.5 134.5t199.5 52.5q102 0 190.5 -36t149.5 -124q41 -59 48 -122.5t7 -133.5v-729h-129v727q0 150 -66.5 225.5t-221.5 75.5q-59 0 -108.5 -18.5t-89.5 -48t-67.5 -68.5t-44.5 -82q-18 -53 -22 -103.5t-4 -107.5v-600h-129zM274 1260 q4 39 15.5 70.5t27.5 55.5q33 45 83.5 68t107.5 10q29 -6 63 -21l71 -32q36 -16 68.5 -27.5t61.5 -11.5q47 0 66.5 35t27.5 72h82q-2 -20 -7 -41t-9 -41q-25 -51 -61.5 -89t-98.5 -38q-45 0 -85 14t-79 32.5t-75.5 34t-73.5 15.5q-49 0 -71.5 -33t-35.5 -73h-78z" />
<glyph unicode="&#xf2;" d="M82 557q0 123 31.5 229.5t96 185.5t162 126t226.5 47q131 0 227.5 -47t161 -125t96 -185.5t31.5 -230.5q0 -133 -37 -240.5t-104.5 -185.5t-162.5 -120t-212 -42q-109 2 -202 39t-162.5 109.5t-110.5 183.5t-41 256zM219 557q0 -102 24.5 -190t71.5 -149.5t119 -96.5 t164 -35q100 0 173 40t118 106.5t66.5 150.5t21.5 174q0 98 -21.5 184t-66.5 149.5t-117 100.5t-174 37q-100 0 -173 -40t-118 -105.5t-66.5 -150.5t-21.5 -175zM338 1534h168l237 -299h-108z" />
<glyph unicode="&#xf3;" d="M82 557q0 123 31.5 229.5t96 185.5t162 126t226.5 47q131 0 227.5 -47t161 -125t96 -185.5t31.5 -230.5q0 -133 -37 -240.5t-104.5 -185.5t-162.5 -120t-212 -42q-109 2 -202 39t-162.5 109.5t-110.5 183.5t-41 256zM219 557q0 -102 24.5 -190t71.5 -149.5t119 -96.5 t164 -35q100 0 173 40t118 106.5t66.5 150.5t21.5 174q0 98 -21.5 184t-66.5 149.5t-117 100.5t-174 37q-100 0 -173 -40t-118 -105.5t-66.5 -150.5t-21.5 -175zM475 1235l240 299h164l-293 -299h-111z" />
<glyph unicode="&#xf4;" d="M82 557q0 123 31.5 229.5t96 185.5t162 126t226.5 47q131 0 227.5 -47t161 -125t96 -185.5t31.5 -230.5q0 -133 -37 -240.5t-104.5 -185.5t-162.5 -120t-212 -42q-109 2 -202 39t-162.5 109.5t-110.5 183.5t-41 256zM219 557q0 -102 24.5 -190t71.5 -149.5t119 -96.5 t164 -35q100 0 173 40t118 106.5t66.5 150.5t21.5 174q0 98 -21.5 184t-66.5 149.5t-117 100.5t-174 37q-100 0 -173 -40t-118 -105.5t-66.5 -150.5t-21.5 -175zM293 1235l244 299h145l244 -299h-142l-176 219l-176 -219h-139z" />
<glyph unicode="&#xf5;" d="M82 557q0 123 31.5 229.5t96 185.5t162 126t226.5 47q131 0 227.5 -47t161 -125t96 -185.5t31.5 -230.5q0 -133 -37 -240.5t-104.5 -185.5t-162.5 -120t-212 -42q-109 2 -202 39t-162.5 109.5t-110.5 183.5t-41 256zM219 557q0 -102 24.5 -190t71.5 -149.5t119 -96.5 t164 -35q100 0 173 40t118 106.5t66.5 150.5t21.5 174q0 98 -21.5 184t-66.5 149.5t-117 100.5t-174 37q-100 0 -173 -40t-118 -105.5t-66.5 -150.5t-21.5 -175zM274 1260q4 39 15.5 70.5t27.5 55.5q33 45 83.5 68t107.5 10q29 -6 63 -21l71 -32q36 -16 68.5 -27.5 t61.5 -11.5q47 0 66.5 35t27.5 72h82q-2 -20 -7 -41t-9 -41q-25 -51 -61.5 -89t-98.5 -38q-45 0 -85 14t-79 32.5t-75.5 34t-73.5 15.5q-49 0 -71.5 -33t-35.5 -73h-78z" />
<glyph unicode="&#xf6;" d="M82 557q0 123 31.5 229.5t96 185.5t162 126t226.5 47q131 0 227.5 -47t161 -125t96 -185.5t31.5 -230.5q0 -133 -37 -240.5t-104.5 -185.5t-162.5 -120t-212 -42q-109 2 -202 39t-162.5 109.5t-110.5 183.5t-41 256zM219 557q0 -102 24.5 -190t71.5 -149.5t119 -96.5 t164 -35q100 0 173 40t118 106.5t66.5 150.5t21.5 174q0 98 -21.5 184t-66.5 149.5t-117 100.5t-174 37q-100 0 -173 -40t-118 -105.5t-66.5 -150.5t-21.5 -175zM371 1255v220h139v-220h-139zM713 1255v220h139v-220h-139z" />
<glyph unicode="&#xf7;" horiz-adv-x="1419" d="M172 473v129h1075v-129h-1075zM633 0v188h155v-188h-155zM633 887v188h155v-188h-155z" />
<glyph unicode="&#xf8;" d="M76 12l125 148q-61 80 -88 180t-27 215q0 123 33 229.5t96.5 186.5t160.5 127t226 47q102 0 185 -30t147 -85l110 133l76 -65l-119 -142q59 -78 88 -180t29 -221q0 -129 -34.5 -236.5t-100 -185.5t-162 -121t-219.5 -43q-121 0 -204 38t-130 81l-114 -137zM223 555 q0 -100 19.5 -173t48.5 -116l559 666q-31 33 -91.5 64.5t-156.5 31.5q-100 0 -173 -40t-118 -106.5t-66.5 -151.5t-21.5 -175zM348 182q49 -49 116.5 -72.5t137.5 -23.5q100 0 173 40t118 105.5t66.5 149.5t21.5 174q0 82 -14.5 159t-53.5 140z" />
<glyph unicode="&#xf9;" d="M156 381v733h129v-731q0 -143 66.5 -220t217.5 -77q80 0 143.5 30.5t106.5 87t66.5 134.5t23.5 170v606h129v-1114h-129v156q-25 -31 -57.5 -64t-74.5 -59.5t-98 -45t-128 -18.5q-113 0 -187.5 32t-120.5 87t-66.5 130t-20.5 163zM338 1534h168l237 -299h-108z" />
<glyph unicode="&#xfa;" d="M156 381v733h129v-731q0 -143 66.5 -220t217.5 -77q80 0 143.5 30.5t106.5 87t66.5 134.5t23.5 170v606h129v-1114h-129v156q-25 -31 -57.5 -64t-74.5 -59.5t-98 -45t-128 -18.5q-113 0 -187.5 32t-120.5 87t-66.5 130t-20.5 163zM475 1235l240 299h164l-293 -299h-111z " />
<glyph unicode="&#xfb;" d="M156 381v733h129v-731q0 -143 66.5 -220t217.5 -77q80 0 143.5 30.5t106.5 87t66.5 134.5t23.5 170v606h129v-1114h-129v156q-25 -31 -57.5 -64t-74.5 -59.5t-98 -45t-128 -18.5q-113 0 -187.5 32t-120.5 87t-66.5 130t-20.5 163zM293 1235l244 299h145l244 -299h-142 l-176 219l-176 -219h-139z" />
<glyph unicode="&#xfc;" d="M156 381v733h129v-731q0 -143 66.5 -220t217.5 -77q80 0 143.5 30.5t106.5 87t66.5 134.5t23.5 170v606h129v-1114h-129v156q-25 -31 -57.5 -64t-74.5 -59.5t-98 -45t-128 -18.5q-113 0 -187.5 32t-120.5 87t-66.5 130t-20.5 163zM371 1255v220h139v-220h-139zM713 1255 v220h139v-220h-139z" />
<glyph unicode="&#xfd;" horiz-adv-x="1075" d="M39 1114h143l359 -956l356 956h139l-415 -1100q-37 -104 -73 -188t-76 -143.5t-88 -90t-116 -30.5q-35 0 -65.5 4t-57.5 10v121l54 -8q27 -4 55 -4q53 0 88 33.5t57.5 81.5t37 101.5t34.5 90.5zM416 1235l237 299h166l-295 -299h-108z" />
<glyph unicode="&#xfe;" horiz-adv-x="1312" d="M170 -438v1986h129v-630h4q29 55 73 98t96 70.5t108.5 43t109.5 15.5q135 0 230.5 -46t156 -124t89 -185.5t28.5 -230.5q0 -117 -30.5 -224.5t-91 -187t-155 -129t-221.5 -49.5q-119 0 -227.5 53.5t-169.5 155.5v-616h-129zM299 553q0 -94 25.5 -179t73.5 -148.5 t119 -101.5t159 -38q98 0 172 40t122 108.5t69.5 159.5t17.5 198q0 104 -30 185t-81 137.5t-119.5 85t-150.5 28.5q-90 0 -162 -37t-119 -100.5t-71.5 -150.5t-24.5 -187z" />
<glyph unicode="&#xff;" horiz-adv-x="1075" d="M39 1114h143l359 -956l356 956h139l-415 -1100q-37 -104 -73 -188t-76 -143.5t-88 -90t-116 -30.5q-35 0 -65.5 4t-57.5 10v121l54 -8q27 -4 55 -4q53 0 88 33.5t57.5 81.5t37 101.5t34.5 90.5zM309 1255v220h140v-220h-140zM651 1255v220h140v-220h-140z" />
<glyph unicode="&#x152;" horiz-adv-x="2150" d="M88 772q0 168 38 317.5t118 260t203.5 175t295.5 64.5q137 0 251 -41t190 -164v164h874v-125h-735v-559h688v-125h-688v-614h756v-125h-895v156q-39 -39 -82 -75t-95.5 -62.5t-116 -43t-140.5 -16.5q-178 0 -302 67.5t-205 180t-118 259t-37 306.5zM233 776 q0 -154 31 -279.5t95.5 -218t163 -143.5t239.5 -51q82 0 164 31.5t145 85.5q66 55 85.5 122.5t19.5 151.5v596q0 193 -115 293t-318 100q-244 0 -377 -173t-133 -515z" />
<glyph unicode="&#x153;" horiz-adv-x="2029" d="M78 555q0 123 28.5 229.5t91 186.5t157 127t229.5 47q156 0 266.5 -63.5t179.5 -207.5q72 137 179.5 204t260.5 67q147 0 239.5 -52.5t144 -137.5t71 -196.5t19.5 -232.5h-844q-8 -59 8 -136t61 -144.5t121 -113.5t185 -46q123 0 210 70.5t113 187.5h131 q-39 -182 -160.5 -278.5t-298.5 -96.5q-160 0 -271.5 78t-168.5 195q-68 -137 -187.5 -205t-269.5 -68q-111 0 -202.5 41t-157.5 118t-100.5 185.5t-34.5 241.5zM215 535q0 -90 22.5 -171t68.5 -142.5t114.5 -98.5t165.5 -37q92 0 161.5 37t116.5 101.5t72 154.5t25 199 q0 98 -25 181t-73 142.5t-120.5 93t-171.5 33.5q-174 0 -268 -132t-88 -361zM1100 635h706q0 84 -19.5 155.5t-61.5 124t-106.5 83t-154.5 30.5q-82 0 -148.5 -31.5t-112.5 -85t-72.5 -125t-30.5 -151.5z" />
<glyph unicode="&#x178;" horiz-adv-x="1312" d="M27 1548h166l456 -745l467 745h170l-561 -872v-676h-147v664zM428 1690v219h139v-219h-139zM770 1690v219h139v-219h-139z" />
<glyph unicode="&#x2c6;" horiz-adv-x="714" d="M51 1235l246 299h143l244 -299h-139l-176 219l-179 -219h-139z" />
<glyph unicode="&#x2dc;" horiz-adv-x="714" d="M35 1260q4 39 14 70.5t29 55.5q33 45 83 68t105 10q31 -6 65 -21l69 -32q36 -16 70 -27.5t60 -11.5q47 0 66.5 35t30.5 72h80q-2 -20 -7.5 -41t-9.5 -41q-23 -51 -59.5 -89t-100.5 -38q-45 0 -84.5 14t-77.5 32.5t-76 34t-75 15.5q-49 0 -70.5 -33t-33.5 -73h-78z" />
<glyph unicode="&#x2013;" horiz-adv-x="1075" d="M0 512v94h1075v-94h-1075z" />
<glyph unicode="&#x2014;" horiz-adv-x="2150" d="M0 512v94h2150v-94h-2150z" />
<glyph unicode="&#x2018;" horiz-adv-x="477" d="M147 1065v254q0 94 45.5 151.5t112.5 77.5v-80q-27 -16 -50.5 -46.5t-23.5 -94.5v-74h74v-188h-158z" />
<glyph unicode="&#x2019;" horiz-adv-x="477" d="M172 1065v80q27 16 50.5 46t23.5 95v74h-74v188h158v-254q0 -94 -44 -151.5t-114 -77.5z" />
<glyph unicode="&#x201a;" horiz-adv-x="477" d="M172 0v188h158v-254q0 -94 -44 -150t-114 -79v80q27 16 50.5 47t23.5 94v74h-74z" />
<glyph unicode="&#x201c;" horiz-adv-x="835" d="M184 1065v254q0 94 44 151.5t114 77.5v-80q-27 -16 -50.5 -46.5t-23.5 -94.5v-74h74v-188h-158zM510 1065v254q0 94 44 151.5t114 77.5v-80q-27 -16 -50.5 -46.5t-23.5 -94.5v-74h74v-188h-158z" />
<glyph unicode="&#x201d;" horiz-adv-x="835" d="M170 1065v80q27 16 50.5 46t23.5 95v74h-74v188h158v-254q0 -94 -44 -151.5t-114 -77.5zM496 1065v80q25 16 48 46t23 95v74h-71v188h155v-254q0 -94 -43.5 -151.5t-111.5 -77.5z" />
<glyph unicode="&#x201e;" horiz-adv-x="835" d="M170 0v188h158v-254q0 -94 -44 -150t-114 -79v80q27 16 50.5 47t23.5 94v74h-74zM496 0v188h155v-254q0 -94 -44 -150t-111 -79v80q25 16 48 47t23 94v74h-71z" />
<glyph unicode="&#x2022;" horiz-adv-x="1075" d="M152 772q0 80 29.5 150.5t81.5 125t123 84t149 29.5q80 0 151.5 -29.5t124.5 -84t84 -125t31 -150.5t-31 -149.5t-84 -123t-125 -83t-151 -29.5q-78 0 -149 29.5t-123 83t-81.5 123t-29.5 149.5z" />
<glyph unicode="&#x2026;" horiz-adv-x="2150" d="M283 0v188h155v-188h-155zM997 0v188h158v-188h-158zM1714 0v188h158v-188h-158z" />
<glyph unicode="&#x2039;" horiz-adv-x="835" d="M260 489v138l313 241v-135l-223 -176l223 -172v-133z" />
<glyph unicode="&#x203a;" horiz-adv-x="835" d="M262 252v135l223 176l-223 172v133l313 -237v-135z" />
<glyph unicode="&#x20ac;" d="M41 508l43 115h131q-2 31 -3 60.5t-1 57.5v47q0 23 2 46h-168l41 116h137q20 162 69.5 269.5t118 174t151.5 94.5t171 28q100 0 172 -25t121 -61.5t78 -80.5t47 -83l-61 -162q-18 80 -54.5 136t-83.5 92t-103 52.5t-116 16.5q-84 0 -148.5 -34t-109.5 -94.5t-72.5 -142 t-42.5 -180.5h670l-43 -116h-637q0 -23 -1 -44.5t-1 -46.5q0 -29 1 -59.5t3 -60.5h557l-43 -115h-501q16 -92 43.5 -170t72.5 -134.5t107.5 -87t144.5 -30.5q111 0 202 62.5t157 170.5v-180q-59 -74 -152.5 -122t-206.5 -48q-86 0 -168 28t-149.5 89t-117.5 164.5t-73 257.5 h-184z" />
<glyph unicode="&#x2122;" horiz-adv-x="2021" d="M61 1462v86h689v-86h-287v-819h-113v819h-289zM918 643v905h206l258 -669h4l254 669h207v-905h-112v811h-4l-312 -811h-73l-312 811h-4v-811h-112z" />
<glyph unicode="&#xe000;" horiz-adv-x="1115" d="M0 1115h1115v-1115h-1115v1115z" />
<glyph unicode="&#xfb01;" horiz-adv-x="1075" d="M29 1006v108h170v176q0 133 53 211t182 78q31 0 56.5 -2t52.5 -8v-117q-43 10 -78 10q-49 0 -78 -18.5t-41 -48t-15 -67.5t-3 -77v-137h209v-108h-209v-1006h-129v1006h-170zM793 1358v190h143v-190h-143zM801 0v1114h129v-1114h-129z" />
<glyph unicode="&#xfb02;" horiz-adv-x="1075" d="M29 1006v108h170v176q0 133 53 211t182 78q31 0 56.5 -2t52.5 -8v-117q-43 10 -78 10q-49 0 -78 -18.5t-41 -48t-15 -67.5t-3 -77v-137h209v-108h-209v-1006h-129v1006h-170zM801 0v1548h129v-1548h-129z" />
<glyph unicode="&#xfb03;" horiz-adv-x="1671" d="M1364 1358v190h141v-190h-141zM1370 0v1114h129v-1114h-129zM641 1006v108h166v176q0 133 53 211t182 78q31 0 56.5 -2t52.5 -8v-117q-43 10 -78 10q-49 0 -76.5 -18.5t-41 -48t-16.5 -67.5t-3 -77v-137h215v-108h-215v-1006h-129v1006h-166zM43 1006v108h166v176 q0 133 53 211t182 78q31 0 56.5 -2t52.5 -8v-117q-43 10 -78 10q-49 0 -76.5 -18.5t-41 -48t-16.5 -67.5t-3 -77v-137h215v-108h-215v-1006h-129v1006h-166z" />
<glyph unicode="&#xfb04;" horiz-adv-x="1671" d="M1370 0v1548h129v-1548h-129zM641 1006v108h166v176q0 133 53 211t182 78q31 0 56.5 -2t52.5 -8v-117q-43 10 -78 10q-49 0 -76.5 -18.5t-41 -48t-16.5 -67.5t-3 -77v-137h215v-108h-215v-1006h-129v1006h-166zM43 1006v108h166v176q0 133 53 211t182 78q31 0 56.5 -2 t52.5 -8v-117q-43 10 -78 10q-49 0 -76.5 -18.5t-41 -48t-16.5 -67.5t-3 -77v-137h215v-108h-215v-1006h-129v1006h-166z" />
</font>
</defs></svg> 